%YAML 1.1
%TAG !u! tag:unity3d.com,2011:
--- !u!74 &7400000
AnimationClip:
  m_ObjectHideFlags: 0
  m_CorrespondingSourceObject: {fileID: 0}
  m_PrefabInstance: {fileID: 0}
  m_PrefabAsset: {fileID: 0}
  m_Name: round_explosion
  serializedVersion: 6
  m_Legacy: 0
  m_Compressed: 0
  m_UseHighQualityCurve: 1
  m_RotationCurves: []
  m_CompressedRotationCurves: []
  m_EulerCurves: []
  m_PositionCurves: []
  m_ScaleCurves: []
  m_FloatCurves: []
  m_PPtrCurves:
  - curve:
    - time: 0
      value: {fileID: 3002433517351329650, guid: e8537f4f630b3f14491fd0405d3b08b4,
        type: 3}
    - time: 0.083333336
      value: {fileID: -1669420949271927381, guid: e8537f4f630b3f14491fd0405d3b08b4,
        type: 3}
    - time: 0.16666667
      value: {fileID: -5031717464615314810, guid: e8537f4f630b3f14491fd0405d3b08b4,
        type: 3}
    - time: 0.25
      value: {fileID: 3150045613417935891, guid: e8537f4f630b3f14491fd0405d3b08b4,
        type: 3}
    - time: 0.33333334
      value: {fileID: 2673674419712795114, guid: e8537f4f630b3f14491fd0405d3b08b4,
        type: 3}
    - time: 0.41666666
      value: {fileID: 134621992504870555, guid: e8537f4f630b3f14491fd0405d3b08b4,
        type: 3}
    - time: 0.5
      value: {fileID: -1223223864686271844, guid: e8537f4f630b3f14491fd0405d3b08b4,
        type: 3}
    - time: 0.5833333
      value: {fileID: 9189702329509464984, guid: e8537f4f630b3f14491fd0405d3b08b4,
        type: 3}
    - time: 0.6666667
      value: {fileID: -7093071690211855391, guid: e8537f4f630b3f14491fd0405d3b08b4,
        type: 3}
    - time: 0.75
      value: {fileID: 2321544475601328988, guid: e8537f4f630b3f14491fd0405d3b08b4,
        type: 3}
    - time: 0.8333333
      value: {fileID: -3035292551012858067, guid: e8537f4f630b3f14491fd0405d3b08b4,
        type: 3}
    - time: 0.9166667
      value: {fileID: -5011887114687224996, guid: e8537f4f630b3f14491fd0405d3b08b4,
        type: 3}
    - time: 1
      value: {fileID: -8406533945054541699, guid: e8537f4f630b3f14491fd0405d3b08b4,
        type: 3}
    - time: 1.0833334
      value: {fileID: -899579322302395905, guid: e8537f4f630b3f14491fd0405d3b08b4,
        type: 3}
    - time: 1.1666666
      value: {fileID: -490136369514962958, guid: e8537f4f630b3f14491fd0405d3b08b4,
        type: 3}
    - time: 1.25
      value: {fileID: -438329980303558555, guid: e8537f4f630b3f14491fd0405d3b08b4,
        type: 3}
    - time: 1.3333334
      value: {fileID: -9095937114844001287, guid: e8537f4f630b3f14491fd0405d3b08b4,
        type: 3}
    - time: 1.4166666
      value: {fileID: -4395998167051185494, guid: e8537f4f630b3f14491fd0405d3b08b4,
        type: 3}
    - time: 1.5
      value: {fileID: -6491719004554481720, guid: e8537f4f630b3f14491fd0405d3b08b4,
        type: 3}
    - time: 1.5833334
      value: {fileID: -4478445479735422018, guid: e8537f4f630b3f14491fd0405d3b08b4,
        type: 3}
    - time: 1.6666666
      value: {fileID: -8366368532040748698, guid: e8537f4f630b3f14491fd0405d3b08b4,
        type: 3}
    - time: 1.75
      value: {fileID: -5244902809288200247, guid: e8537f4f630b3f14491fd0405d3b08b4,
        type: 3}
    - time: 1.8333334
      value: {fileID: 4597198218470952542, guid: e8537f4f630b3f14491fd0405d3b08b4,
        type: 3}
    - time: 1.9166666
      value: {fileID: -2101506904758709065, guid: e8537f4f630b3f14491fd0405d3b08b4,
        type: 3}
    - time: 2
      value: {fileID: -3102287709469584012, guid: e8537f4f630b3f14491fd0405d3b08b4,
        type: 3}
    - time: 2.0833333
      value: {fileID: 446239100359291352, guid: e8537f4f630b3f14491fd0405d3b08b4,
        type: 3}
    - time: 2.1666667
      value: {fileID: 8621961911144943589, guid: e8537f4f630b3f14491fd0405d3b08b4,
        type: 3}
    - time: 2.25
      value: {fileID: -6963201238721930870, guid: e8537f4f630b3f14491fd0405d3b08b4,
        type: 3}
    - time: 2.3333333
      value: {fileID: 1379890104981959496, guid: e8537f4f630b3f14491fd0405d3b08b4,
        type: 3}
    - time: 2.4166667
      value: {fileID: 1586590512986030152, guid: e8537f4f630b3f14491fd0405d3b08b4,
        type: 3}
    - time: 2.5
      value: {fileID: -7769951630539983063, guid: e8537f4f630b3f14491fd0405d3b08b4,
        type: 3}
    - time: 2.5833333
      value: {fileID: 6302594712068839958, guid: e8537f4f630b3f14491fd0405d3b08b4,
        type: 3}
    - time: 2.6666667
      value: {fileID: 8329720214801073927, guid: e8537f4f630b3f14491fd0405d3b08b4,
        type: 3}
    - time: 2.75
      value: {fileID: 1007577112468214644, guid: e8537f4f630b3f14491fd0405d3b08b4,
        type: 3}
    - time: 2.8333333
      value: {fileID: -4553744383136162713, guid: e8537f4f630b3f14491fd0405d3b08b4,
        type: 3}
    - time: 2.9166667
      value: {fileID: 879438781933362057, guid: e8537f4f630b3f14491fd0405d3b08b4,
        type: 3}
    - time: 3
      value: {fileID: -4752056044932483011, guid: e8537f4f630b3f14491fd0405d3b08b4,
        type: 3}
    - time: 3.0833333
      value: {fileID: 4022891535238383744, guid: e8537f4f630b3f14491fd0405d3b08b4,
        type: 3}
    - time: 3.1666667
      value: {fileID: 787480388722079019, guid: e8537f4f630b3f14491fd0405d3b08b4,
        type: 3}
    - time: 3.25
      value: {fileID: 3907145889055301480, guid: e8537f4f630b3f14491fd0405d3b08b4,
        type: 3}
    - time: 3.3333333
      value: {fileID: -811398451208108741, guid: e8537f4f630b3f14491fd0405d3b08b4,
        type: 3}
    - time: 3.4166667
      value: {fileID: 6959056838816310245, guid: e8537f4f630b3f14491fd0405d3b08b4,
        type: 3}
    - time: 3.5
      value: {fileID: 289536837600700078, guid: e8537f4f630b3f14491fd0405d3b08b4,
        type: 3}
    - time: 3.5833333
      value: {fileID: 1367014866653408765, guid: e8537f4f630b3f14491fd0405d3b08b4,
        type: 3}
    - time: 3.6666667
      value: {fileID: -4935056999477946884, guid: e8537f4f630b3f14491fd0405d3b08b4,
        type: 3}
    - time: 3.75
      value: {fileID: -6782901295300799124, guid: e8537f4f630b3f14491fd0405d3b08b4,
        type: 3}
    - time: 3.8333333
      value: {fileID: -8548508549039367105, guid: e8537f4f630b3f14491fd0405d3b08b4,
        type: 3}
    - time: 3.9166667
      value: {fileID: -1467454501423966181, guid: e8537f4f630b3f14491fd0405d3b08b4,
        type: 3}
    - time: 4
      value: {fileID: 4197988785246882840, guid: e8537f4f630b3f14491fd0405d3b08b4,
        type: 3}
    - time: 4.0833335
      value: {fileID: -5502214357098398398, guid: e8537f4f630b3f14491fd0405d3b08b4,
        type: 3}
    - time: 4.1666665
      value: {fileID: -2270206830420568104, guid: e8537f4f630b3f14491fd0405d3b08b4,
        type: 3}
    - time: 4.25
      value: {fileID: 3179242736832408270, guid: e8537f4f630b3f14491fd0405d3b08b4,
        type: 3}
    - time: 4.3333335
      value: {fileID: 8715091271235601994, guid: e8537f4f630b3f14491fd0405d3b08b4,
        type: 3}
    - time: 4.4166665
      value: {fileID: 4709936156237812826, guid: e8537f4f630b3f14491fd0405d3b08b4,
        type: 3}
    - time: 4.5
      value: {fileID: -5880097008982828980, guid: e8537f4f630b3f14491fd0405d3b08b4,
        type: 3}
    - time: 4.5833335
      value: {fileID: 8611940822683427943, guid: e8537f4f630b3f14491fd0405d3b08b4,
        type: 3}
    - time: 4.6666665
      value: {fileID: 8281266924621440144, guid: e8537f4f630b3f14491fd0405d3b08b4,
        type: 3}
    - time: 4.75
      value: {fileID: -5392399744669207369, guid: e8537f4f630b3f14491fd0405d3b08b4,
        type: 3}
    - time: 4.8333335
      value: {fileID: 3342183769108510846, guid: e8537f4f630b3f14491fd0405d3b08b4,
        type: 3}
    - time: 4.9166665
      value: {fileID: -8410891041133184087, guid: e8537f4f630b3f14491fd0405d3b08b4,
        type: 3}
    - time: 5
      value: {fileID: -7313908249129483534, guid: e8537f4f630b3f14491fd0405d3b08b4,
        type: 3}
    - time: 5.0833335
      value: {fileID: 4271206860672929028, guid: e8537f4f630b3f14491fd0405d3b08b4,
        type: 3}
    - time: 5.1666665
      value: {fileID: -5691745329617409287, guid: e8537f4f630b3f14491fd0405d3b08b4,
        type: 3}
    - time: 5.25
      value: {fileID: -2718476830536535614, guid: e8537f4f630b3f14491fd0405d3b08b4,
        type: 3}
    - time: 5.3333335
      value: {fileID: -6480233625855348435, guid: e8537f4f630b3f14491fd0405d3b08b4,
        type: 3}
    - time: 5.4166665
      value: {fileID: 2373825404088849768, guid: e8537f4f630b3f14491fd0405d3b08b4,
        type: 3}
    - time: 5.5
      value: {fileID: 5354473475408541993, guid: e8537f4f630b3f14491fd0405d3b08b4,
        type: 3}
    - time: 5.5833335
      value: {fileID: 5078692408461984428, guid: e8537f4f630b3f14491fd0405d3b08b4,
        type: 3}
    - time: 5.6666665
      value: {fileID: 8976657986946354276, guid: e8537f4f630b3f14491fd0405d3b08b4,
        type: 3}
    - time: 5.75
      value: {fileID: -143341768192612811, guid: e8537f4f630b3f14491fd0405d3b08b4,
        type: 3}
    - time: 5.8333335
      value: {fileID: 7470977147339439839, guid: e8537f4f630b3f14491fd0405d3b08b4,
        type: 3}
    attribute: m_Sprite
    path: 
    classID: 212
    script: {fileID: 0}
  m_SampleRate: 12
  m_WrapMode: 0
  m_Bounds:
    m_Center: {x: 0, y: 0, z: 0}
    m_Extent: {x: 0, y: 0, z: 0}
  m_ClipBindingConstant:
    genericBindings:
    - serializedVersion: 2
      path: 0
      attribute: 0
      script: {fileID: 0}
      typeID: 212
      customType: 23
      isPPtrCurve: 1
    pptrCurveMapping:
    - {fileID: 3002433517351329650, guid: e8537f4f630b3f14491fd0405d3b08b4, type: 3}
    - {fileID: -1669420949271927381, guid: e8537f4f630b3f14491fd0405d3b08b4, type: 3}
    - {fileID: -5031717464615314810, guid: e8537f4f630b3f14491fd0405d3b08b4, type: 3}
    - {fileID: 3150045613417935891, guid: e8537f4f630b3f14491fd0405d3b08b4, type: 3}
    - {fileID: 2673674419712795114, guid: e8537f4f630b3f14491fd0405d3b08b4, type: 3}
    - {fileID: 134621992504870555, guid: e8537f4f630b3f14491fd0405d3b08b4, type: 3}
    - {fileID: -1223223864686271844, guid: e8537f4f630b3f14491fd0405d3b08b4, type: 3}
    - {fileID: 9189702329509464984, guid: e8537f4f630b3f14491fd0405d3b08b4, type: 3}
    - {fileID: -7093071690211855391, guid: e8537f4f630b3f14491fd0405d3b08b4, type: 3}
    - {fileID: 2321544475601328988, guid: e8537f4f630b3f14491fd0405d3b08b4, type: 3}
    - {fileID: -3035292551012858067, guid: e8537f4f630b3f14491fd0405d3b08b4, type: 3}
    - {fileID: -5011887114687224996, guid: e8537f4f630b3f14491fd0405d3b08b4, type: 3}
    - {fileID: -8406533945054541699, guid: e8537f4f630b3f14491fd0405d3b08b4, type: 3}
    - {fileID: -899579322302395905, guid: e8537f4f630b3f14491fd0405d3b08b4, type: 3}
    - {fileID: -490136369514962958, guid: e8537f4f630b3f14491fd0405d3b08b4, type: 3}
    - {fileID: -438329980303558555, guid: e8537f4f630b3f14491fd0405d3b08b4, type: 3}
    - {fileID: -9095937114844001287, guid: e8537f4f630b3f14491fd0405d3b08b4, type: 3}
    - {fileID: -4395998167051185494, guid: e8537f4f630b3f14491fd0405d3b08b4, type: 3}
    - {fileID: -6491719004554481720, guid: e8537f4f630b3f14491fd0405d3b08b4, type: 3}
    - {fileID: -4478445479735422018, guid: e8537f4f630b3f14491fd0405d3b08b4, type: 3}
    - {fileID: -8366368532040748698, guid: e8537f4f630b3f14491fd0405d3b08b4, type: 3}
    - {fileID: -5244902809288200247, guid: e8537f4f630b3f14491fd0405d3b08b4, type: 3}
    - {fileID: 4597198218470952542, guid: e8537f4f630b3f14491fd0405d3b08b4, type: 3}
    - {fileID: -2101506904758709065, guid: e8537f4f630b3f14491fd0405d3b08b4, type: 3}
    - {fileID: -3102287709469584012, guid: e8537f4f630b3f14491fd0405d3b08b4, type: 3}
    - {fileID: 446239100359291352, guid: e8537f4f630b3f14491fd0405d3b08b4, type: 3}
    - {fileID: 8621961911144943589, guid: e8537f4f630b3f14491fd0405d3b08b4, type: 3}
    - {fileID: -6963201238721930870, guid: e8537f4f630b3f14491fd0405d3b08b4, type: 3}
    - {fileID: 1379890104981959496, guid: e8537f4f630b3f14491fd0405d3b08b4, type: 3}
    - {fileID: 1586590512986030152, guid: e8537f4f630b3f14491fd0405d3b08b4, type: 3}
    - {fileID: -7769951630539983063, guid: e8537f4f630b3f14491fd0405d3b08b4, type: 3}
    - {fileID: 6302594712068839958, guid: e8537f4f630b3f14491fd0405d3b08b4, type: 3}
    - {fileID: 8329720214801073927, guid: e8537f4f630b3f14491fd0405d3b08b4, type: 3}
    - {fileID: 1007577112468214644, guid: e8537f4f630b3f14491fd0405d3b08b4, type: 3}
    - {fileID: -4553744383136162713, guid: e8537f4f630b3f14491fd0405d3b08b4, type: 3}
    - {fileID: 879438781933362057, guid: e8537f4f630b3f14491fd0405d3b08b4, type: 3}
    - {fileID: -4752056044932483011, guid: e8537f4f630b3f14491fd0405d3b08b4, type: 3}
    - {fileID: 4022891535238383744, guid: e8537f4f630b3f14491fd0405d3b08b4, type: 3}
    - {fileID: 787480388722079019, guid: e8537f4f630b3f14491fd0405d3b08b4, type: 3}
    - {fileID: 3907145889055301480, guid: e8537f4f630b3f14491fd0405d3b08b4, type: 3}
    - {fileID: -811398451208108741, guid: e8537f4f630b3f14491fd0405d3b08b4, type: 3}
    - {fileID: 6959056838816310245, guid: e8537f4f630b3f14491fd0405d3b08b4, type: 3}
    - {fileID: 289536837600700078, guid: e8537f4f630b3f14491fd0405d3b08b4, type: 3}
    - {fileID: 1367014866653408765, guid: e8537f4f630b3f14491fd0405d3b08b4, type: 3}
    - {fileID: -4935056999477946884, guid: e8537f4f630b3f14491fd0405d3b08b4, type: 3}
    - {fileID: -6782901295300799124, guid: e8537f4f630b3f14491fd0405d3b08b4, type: 3}
    - {fileID: -8548508549039367105, guid: e8537f4f630b3f14491fd0405d3b08b4, type: 3}
    - {fileID: -1467454501423966181, guid: e8537f4f630b3f14491fd0405d3b08b4, type: 3}
    - {fileID: 4197988785246882840, guid: e8537f4f630b3f14491fd0405d3b08b4, type: 3}
    - {fileID: -5502214357098398398, guid: e8537f4f630b3f14491fd0405d3b08b4, type: 3}
    - {fileID: -2270206830420568104, guid: e8537f4f630b3f14491fd0405d3b08b4, type: 3}
    - {fileID: 3179242736832408270, guid: e8537f4f630b3f14491fd0405d3b08b4, type: 3}
    - {fileID: 8715091271235601994, guid: e8537f4f630b3f14491fd0405d3b08b4, type: 3}
    - {fileID: 4709936156237812826, guid: e8537f4f630b3f14491fd0405d3b08b4, type: 3}
    - {fileID: -5880097008982828980, guid: e8537f4f630b3f14491fd0405d3b08b4, type: 3}
    - {fileID: 8611940822683427943, guid: e8537f4f630b3f14491fd0405d3b08b4, type: 3}
    - {fileID: 8281266924621440144, guid: e8537f4f630b3f14491fd0405d3b08b4, type: 3}
    - {fileID: -5392399744669207369, guid: e8537f4f630b3f14491fd0405d3b08b4, type: 3}
    - {fileID: 3342183769108510846, guid: e8537f4f630b3f14491fd0405d3b08b4, type: 3}
    - {fileID: -8410891041133184087, guid: e8537f4f630b3f14491fd0405d3b08b4, type: 3}
    - {fileID: -7313908249129483534, guid: e8537f4f630b3f14491fd0405d3b08b4, type: 3}
    - {fileID: 4271206860672929028, guid: e8537f4f630b3f14491fd0405d3b08b4, type: 3}
    - {fileID: -5691745329617409287, guid: e8537f4f630b3f14491fd0405d3b08b4, type: 3}
    - {fileID: -2718476830536535614, guid: e8537f4f630b3f14491fd0405d3b08b4, type: 3}
    - {fileID: -6480233625855348435, guid: e8537f4f630b3f14491fd0405d3b08b4, type: 3}
    - {fileID: 2373825404088849768, guid: e8537f4f630b3f14491fd0405d3b08b4, type: 3}
    - {fileID: 5354473475408541993, guid: e8537f4f630b3f14491fd0405d3b08b4, type: 3}
    - {fileID: 5078692408461984428, guid: e8537f4f630b3f14491fd0405d3b08b4, type: 3}
    - {fileID: 8976657986946354276, guid: e8537f4f630b3f14491fd0405d3b08b4, type: 3}
    - {fileID: -143341768192612811, guid: e8537f4f630b3f14491fd0405d3b08b4, type: 3}
    - {fileID: 7470977147339439839, guid: e8537f4f630b3f14491fd0405d3b08b4, type: 3}
  m_AnimationClipSettings:
    serializedVersion: 2
    m_AdditiveReferencePoseClip: {fileID: 0}
    m_AdditiveReferencePoseTime: 0
    m_StartTime: 0
    m_StopTime: 5.916667
    m_OrientationOffsetY: 0
    m_Level: 0
    m_CycleOffset: 0
    m_HasAdditiveReferencePose: 0
    m_LoopTime: 1
    m_LoopBlend: 0
    m_LoopBlendOrientation: 0
    m_LoopBlendPositionY: 0
    m_LoopBlendPositionXZ: 0
    m_KeepOriginalOrientation: 0
    m_KeepOriginalPositionY: 1
    m_KeepOriginalPositionXZ: 0
    m_HeightFromFeet: 0
    m_Mirror: 0
  m_EditorCurves: []
  m_EulerEditorCurves: []
  m_HasGenericRootTransform: 0
  m_HasMotionFloatCurves: 0
  m_Events: []
