%YAML 1.1
%TAG !u! tag:unity3d.com,2011:
--- !u!74 &7400000
AnimationClip:
  m_ObjectHideFlags: 0
  m_CorrespondingSourceObject: {fileID: 0}
  m_PrefabInstance: {fileID: 0}
  m_PrefabAsset: {fileID: 0}
  m_Name: vertical_explosion_small
  serializedVersion: 6
  m_Legacy: 0
  m_Compressed: 0
  m_UseHighQualityCurve: 1
  m_RotationCurves: []
  m_CompressedRotationCurves: []
  m_EulerCurves: []
  m_PositionCurves: []
  m_ScaleCurves: []
  m_FloatCurves: []
  m_PPtrCurves:
  - curve:
    - time: 0
      value: {fileID: 5506202589718472634, guid: 665bddd0dcbe4934a89451607155fb94,
        type: 3}
    - time: 0.083333336
      value: {fileID: -7763160027690087037, guid: 665bddd0dcbe4934a89451607155fb94,
        type: 3}
    - time: 0.16666667
      value: {fileID: 6099639674270580208, guid: 665bddd0dcbe4934a89451607155fb94,
        type: 3}
    - time: 0.25
      value: {fileID: -9001152907226337014, guid: 665bddd0dcbe4934a89451607155fb94,
        type: 3}
    - time: 0.33333334
      value: {fileID: 6535131187798334696, guid: 665bddd0dcbe4934a89451607155fb94,
        type: 3}
    - time: 0.41666666
      value: {fileID: 3878759302050860162, guid: 665bddd0dcbe4934a89451607155fb94,
        type: 3}
    - time: 0.5
      value: {fileID: 8031839378454879470, guid: 665bddd0dcbe4934a89451607155fb94,
        type: 3}
    - time: 0.5833333
      value: {fileID: -2354200011368059872, guid: 665bddd0dcbe4934a89451607155fb94,
        type: 3}
    - time: 0.6666667
      value: {fileID: -7892414305327820546, guid: 665bddd0dcbe4934a89451607155fb94,
        type: 3}
    - time: 0.75
      value: {fileID: -2141372884535844072, guid: 665bddd0dcbe4934a89451607155fb94,
        type: 3}
    - time: 0.8333333
      value: {fileID: 7602172374473149473, guid: 665bddd0dcbe4934a89451607155fb94,
        type: 3}
    - time: 0.9166667
      value: {fileID: -7957051415620123676, guid: 665bddd0dcbe4934a89451607155fb94,
        type: 3}
    - time: 1
      value: {fileID: -8761470817108815534, guid: 665bddd0dcbe4934a89451607155fb94,
        type: 3}
    - time: 1.0833334
      value: {fileID: -7725416892775143221, guid: 665bddd0dcbe4934a89451607155fb94,
        type: 3}
    - time: 1.1666666
      value: {fileID: -1479124394034741978, guid: 665bddd0dcbe4934a89451607155fb94,
        type: 3}
    - time: 1.25
      value: {fileID: -1441676484376992734, guid: 665bddd0dcbe4934a89451607155fb94,
        type: 3}
    - time: 1.3333334
      value: {fileID: 3879997267487558215, guid: 665bddd0dcbe4934a89451607155fb94,
        type: 3}
    - time: 1.4166666
      value: {fileID: 8174314256231649416, guid: 665bddd0dcbe4934a89451607155fb94,
        type: 3}
    - time: 1.5
      value: {fileID: 5434328813243771523, guid: 665bddd0dcbe4934a89451607155fb94,
        type: 3}
    - time: 1.5833334
      value: {fileID: 7178885483532930202, guid: 665bddd0dcbe4934a89451607155fb94,
        type: 3}
    - time: 1.6666666
      value: {fileID: -5204907734360532750, guid: 665bddd0dcbe4934a89451607155fb94,
        type: 3}
    - time: 1.75
      value: {fileID: 3689935013167786443, guid: 665bddd0dcbe4934a89451607155fb94,
        type: 3}
    - time: 1.8333334
      value: {fileID: 6014633504952757377, guid: 665bddd0dcbe4934a89451607155fb94,
        type: 3}
    - time: 1.9166666
      value: {fileID: 3169127829240286338, guid: 665bddd0dcbe4934a89451607155fb94,
        type: 3}
    - time: 2
      value: {fileID: -6176478431793891022, guid: 665bddd0dcbe4934a89451607155fb94,
        type: 3}
    - time: 2.0833333
      value: {fileID: -4286607885817024261, guid: 665bddd0dcbe4934a89451607155fb94,
        type: 3}
    - time: 2.1666667
      value: {fileID: 4982794763956921515, guid: 665bddd0dcbe4934a89451607155fb94,
        type: 3}
    - time: 2.25
      value: {fileID: -8893981106816067039, guid: 665bddd0dcbe4934a89451607155fb94,
        type: 3}
    - time: 2.3333333
      value: {fileID: -2772800684896489633, guid: 665bddd0dcbe4934a89451607155fb94,
        type: 3}
    - time: 2.4166667
      value: {fileID: 429873420946982560, guid: 665bddd0dcbe4934a89451607155fb94,
        type: 3}
    - time: 2.5
      value: {fileID: -3394187703142232005, guid: 665bddd0dcbe4934a89451607155fb94,
        type: 3}
    - time: 2.5833333
      value: {fileID: 5958234739471884572, guid: 665bddd0dcbe4934a89451607155fb94,
        type: 3}
    - time: 2.6666667
      value: {fileID: 2223069758160727841, guid: 665bddd0dcbe4934a89451607155fb94,
        type: 3}
    - time: 2.75
      value: {fileID: 2482099359963704015, guid: 665bddd0dcbe4934a89451607155fb94,
        type: 3}
    - time: 2.8333333
      value: {fileID: 2327992315329684196, guid: 665bddd0dcbe4934a89451607155fb94,
        type: 3}
    - time: 2.9166667
      value: {fileID: -2123896849425479789, guid: 665bddd0dcbe4934a89451607155fb94,
        type: 3}
    - time: 3
      value: {fileID: 3662399536844682620, guid: 665bddd0dcbe4934a89451607155fb94,
        type: 3}
    - time: 3.0833333
      value: {fileID: 5012371551529016477, guid: 665bddd0dcbe4934a89451607155fb94,
        type: 3}
    - time: 3.1666667
      value: {fileID: 5024190201239865820, guid: 665bddd0dcbe4934a89451607155fb94,
        type: 3}
    - time: 3.25
      value: {fileID: -591097111803009594, guid: 665bddd0dcbe4934a89451607155fb94,
        type: 3}
    - time: 3.3333333
      value: {fileID: 8325182012127227058, guid: 665bddd0dcbe4934a89451607155fb94,
        type: 3}
    - time: 3.4166667
      value: {fileID: 6340956046142314751, guid: 665bddd0dcbe4934a89451607155fb94,
        type: 3}
    - time: 3.5
      value: {fileID: -8978039202437147236, guid: 665bddd0dcbe4934a89451607155fb94,
        type: 3}
    - time: 3.5833333
      value: {fileID: 1753452549064449855, guid: 665bddd0dcbe4934a89451607155fb94,
        type: 3}
    - time: 3.6666667
      value: {fileID: -63846144753172090, guid: 665bddd0dcbe4934a89451607155fb94,
        type: 3}
    - time: 3.75
      value: {fileID: 4418583417826040890, guid: 665bddd0dcbe4934a89451607155fb94,
        type: 3}
    - time: 3.8333333
      value: {fileID: 8279943905833670002, guid: 665bddd0dcbe4934a89451607155fb94,
        type: 3}
    - time: 3.9166667
      value: {fileID: -138392951198132476, guid: 665bddd0dcbe4934a89451607155fb94,
        type: 3}
    - time: 4
      value: {fileID: 4177380628231145693, guid: 665bddd0dcbe4934a89451607155fb94,
        type: 3}
    - time: 4.0833335
      value: {fileID: -5231475905314558428, guid: 665bddd0dcbe4934a89451607155fb94,
        type: 3}
    - time: 4.1666665
      value: {fileID: -6140703040484680744, guid: 665bddd0dcbe4934a89451607155fb94,
        type: 3}
    - time: 4.25
      value: {fileID: -657667111036344697, guid: 665bddd0dcbe4934a89451607155fb94,
        type: 3}
    - time: 4.3333335
      value: {fileID: 1216852516825636242, guid: 665bddd0dcbe4934a89451607155fb94,
        type: 3}
    - time: 4.4166665
      value: {fileID: 6172183155474877783, guid: 665bddd0dcbe4934a89451607155fb94,
        type: 3}
    - time: 4.5
      value: {fileID: -7148088967045899276, guid: 665bddd0dcbe4934a89451607155fb94,
        type: 3}
    - time: 4.5833335
      value: {fileID: 2098617985803366571, guid: 665bddd0dcbe4934a89451607155fb94,
        type: 3}
    - time: 4.6666665
      value: {fileID: 2836359778777819701, guid: 665bddd0dcbe4934a89451607155fb94,
        type: 3}
    - time: 4.75
      value: {fileID: -7992834213602007098, guid: 665bddd0dcbe4934a89451607155fb94,
        type: 3}
    - time: 4.8333335
      value: {fileID: -4535322142572842078, guid: 665bddd0dcbe4934a89451607155fb94,
        type: 3}
    - time: 4.9166665
      value: {fileID: -298060707439518744, guid: 665bddd0dcbe4934a89451607155fb94,
        type: 3}
    - time: 5
      value: {fileID: -6799174744563569260, guid: 665bddd0dcbe4934a89451607155fb94,
        type: 3}
    - time: 5.0833335
      value: {fileID: -7124435497307165644, guid: 665bddd0dcbe4934a89451607155fb94,
        type: 3}
    - time: 5.1666665
      value: {fileID: 6050856534794281198, guid: 665bddd0dcbe4934a89451607155fb94,
        type: 3}
    - time: 5.25
      value: {fileID: -8265893200178529198, guid: 665bddd0dcbe4934a89451607155fb94,
        type: 3}
    - time: 5.3333335
      value: {fileID: -1596412563310912792, guid: 665bddd0dcbe4934a89451607155fb94,
        type: 3}
    attribute: m_Sprite
    path: 
    classID: 212
    script: {fileID: 0}
  m_SampleRate: 12
  m_WrapMode: 0
  m_Bounds:
    m_Center: {x: 0, y: 0, z: 0}
    m_Extent: {x: 0, y: 0, z: 0}
  m_ClipBindingConstant:
    genericBindings:
    - serializedVersion: 2
      path: 0
      attribute: 0
      script: {fileID: 0}
      typeID: 212
      customType: 23
      isPPtrCurve: 1
    pptrCurveMapping:
    - {fileID: 5506202589718472634, guid: 665bddd0dcbe4934a89451607155fb94, type: 3}
    - {fileID: -7763160027690087037, guid: 665bddd0dcbe4934a89451607155fb94, type: 3}
    - {fileID: 6099639674270580208, guid: 665bddd0dcbe4934a89451607155fb94, type: 3}
    - {fileID: -9001152907226337014, guid: 665bddd0dcbe4934a89451607155fb94, type: 3}
    - {fileID: 6535131187798334696, guid: 665bddd0dcbe4934a89451607155fb94, type: 3}
    - {fileID: 3878759302050860162, guid: 665bddd0dcbe4934a89451607155fb94, type: 3}
    - {fileID: 8031839378454879470, guid: 665bddd0dcbe4934a89451607155fb94, type: 3}
    - {fileID: -2354200011368059872, guid: 665bddd0dcbe4934a89451607155fb94, type: 3}
    - {fileID: -7892414305327820546, guid: 665bddd0dcbe4934a89451607155fb94, type: 3}
    - {fileID: -2141372884535844072, guid: 665bddd0dcbe4934a89451607155fb94, type: 3}
    - {fileID: 7602172374473149473, guid: 665bddd0dcbe4934a89451607155fb94, type: 3}
    - {fileID: -7957051415620123676, guid: 665bddd0dcbe4934a89451607155fb94, type: 3}
    - {fileID: -8761470817108815534, guid: 665bddd0dcbe4934a89451607155fb94, type: 3}
    - {fileID: -7725416892775143221, guid: 665bddd0dcbe4934a89451607155fb94, type: 3}
    - {fileID: -1479124394034741978, guid: 665bddd0dcbe4934a89451607155fb94, type: 3}
    - {fileID: -1441676484376992734, guid: 665bddd0dcbe4934a89451607155fb94, type: 3}
    - {fileID: 3879997267487558215, guid: 665bddd0dcbe4934a89451607155fb94, type: 3}
    - {fileID: 8174314256231649416, guid: 665bddd0dcbe4934a89451607155fb94, type: 3}
    - {fileID: 5434328813243771523, guid: 665bddd0dcbe4934a89451607155fb94, type: 3}
    - {fileID: 7178885483532930202, guid: 665bddd0dcbe4934a89451607155fb94, type: 3}
    - {fileID: -5204907734360532750, guid: 665bddd0dcbe4934a89451607155fb94, type: 3}
    - {fileID: 3689935013167786443, guid: 665bddd0dcbe4934a89451607155fb94, type: 3}
    - {fileID: 6014633504952757377, guid: 665bddd0dcbe4934a89451607155fb94, type: 3}
    - {fileID: 3169127829240286338, guid: 665bddd0dcbe4934a89451607155fb94, type: 3}
    - {fileID: -6176478431793891022, guid: 665bddd0dcbe4934a89451607155fb94, type: 3}
    - {fileID: -4286607885817024261, guid: 665bddd0dcbe4934a89451607155fb94, type: 3}
    - {fileID: 4982794763956921515, guid: 665bddd0dcbe4934a89451607155fb94, type: 3}
    - {fileID: -8893981106816067039, guid: 665bddd0dcbe4934a89451607155fb94, type: 3}
    - {fileID: -2772800684896489633, guid: 665bddd0dcbe4934a89451607155fb94, type: 3}
    - {fileID: 429873420946982560, guid: 665bddd0dcbe4934a89451607155fb94, type: 3}
    - {fileID: -3394187703142232005, guid: 665bddd0dcbe4934a89451607155fb94, type: 3}
    - {fileID: 5958234739471884572, guid: 665bddd0dcbe4934a89451607155fb94, type: 3}
    - {fileID: 2223069758160727841, guid: 665bddd0dcbe4934a89451607155fb94, type: 3}
    - {fileID: 2482099359963704015, guid: 665bddd0dcbe4934a89451607155fb94, type: 3}
    - {fileID: 2327992315329684196, guid: 665bddd0dcbe4934a89451607155fb94, type: 3}
    - {fileID: -2123896849425479789, guid: 665bddd0dcbe4934a89451607155fb94, type: 3}
    - {fileID: 3662399536844682620, guid: 665bddd0dcbe4934a89451607155fb94, type: 3}
    - {fileID: 5012371551529016477, guid: 665bddd0dcbe4934a89451607155fb94, type: 3}
    - {fileID: 5024190201239865820, guid: 665bddd0dcbe4934a89451607155fb94, type: 3}
    - {fileID: -591097111803009594, guid: 665bddd0dcbe4934a89451607155fb94, type: 3}
    - {fileID: 8325182012127227058, guid: 665bddd0dcbe4934a89451607155fb94, type: 3}
    - {fileID: 6340956046142314751, guid: 665bddd0dcbe4934a89451607155fb94, type: 3}
    - {fileID: -8978039202437147236, guid: 665bddd0dcbe4934a89451607155fb94, type: 3}
    - {fileID: 1753452549064449855, guid: 665bddd0dcbe4934a89451607155fb94, type: 3}
    - {fileID: -63846144753172090, guid: 665bddd0dcbe4934a89451607155fb94, type: 3}
    - {fileID: 4418583417826040890, guid: 665bddd0dcbe4934a89451607155fb94, type: 3}
    - {fileID: 8279943905833670002, guid: 665bddd0dcbe4934a89451607155fb94, type: 3}
    - {fileID: -138392951198132476, guid: 665bddd0dcbe4934a89451607155fb94, type: 3}
    - {fileID: 4177380628231145693, guid: 665bddd0dcbe4934a89451607155fb94, type: 3}
    - {fileID: -5231475905314558428, guid: 665bddd0dcbe4934a89451607155fb94, type: 3}
    - {fileID: -6140703040484680744, guid: 665bddd0dcbe4934a89451607155fb94, type: 3}
    - {fileID: -657667111036344697, guid: 665bddd0dcbe4934a89451607155fb94, type: 3}
    - {fileID: 1216852516825636242, guid: 665bddd0dcbe4934a89451607155fb94, type: 3}
    - {fileID: 6172183155474877783, guid: 665bddd0dcbe4934a89451607155fb94, type: 3}
    - {fileID: -7148088967045899276, guid: 665bddd0dcbe4934a89451607155fb94, type: 3}
    - {fileID: 2098617985803366571, guid: 665bddd0dcbe4934a89451607155fb94, type: 3}
    - {fileID: 2836359778777819701, guid: 665bddd0dcbe4934a89451607155fb94, type: 3}
    - {fileID: -7992834213602007098, guid: 665bddd0dcbe4934a89451607155fb94, type: 3}
    - {fileID: -4535322142572842078, guid: 665bddd0dcbe4934a89451607155fb94, type: 3}
    - {fileID: -298060707439518744, guid: 665bddd0dcbe4934a89451607155fb94, type: 3}
    - {fileID: -6799174744563569260, guid: 665bddd0dcbe4934a89451607155fb94, type: 3}
    - {fileID: -7124435497307165644, guid: 665bddd0dcbe4934a89451607155fb94, type: 3}
    - {fileID: 6050856534794281198, guid: 665bddd0dcbe4934a89451607155fb94, type: 3}
    - {fileID: -8265893200178529198, guid: 665bddd0dcbe4934a89451607155fb94, type: 3}
    - {fileID: -1596412563310912792, guid: 665bddd0dcbe4934a89451607155fb94, type: 3}
  m_AnimationClipSettings:
    serializedVersion: 2
    m_AdditiveReferencePoseClip: {fileID: 0}
    m_AdditiveReferencePoseTime: 0
    m_StartTime: 0
    m_StopTime: 5.416667
    m_OrientationOffsetY: 0
    m_Level: 0
    m_CycleOffset: 0
    m_HasAdditiveReferencePose: 0
    m_LoopTime: 1
    m_LoopBlend: 0
    m_LoopBlendOrientation: 0
    m_LoopBlendPositionY: 0
    m_LoopBlendPositionXZ: 0
    m_KeepOriginalOrientation: 0
    m_KeepOriginalPositionY: 1
    m_KeepOriginalPositionXZ: 0
    m_HeightFromFeet: 0
    m_Mirror: 0
  m_EditorCurves: []
  m_EulerEditorCurves: []
  m_HasGenericRootTransform: 0
  m_HasMotionFloatCurves: 0
  m_Events: []
