%YAML 1.1
%TAG !u! tag:unity3d.com,2011:
--- !u!78 &1
TagManager:
  serializedVersion: 2
  tags:
  - Mouton
  - BossMouton
  - Goo
  - DialogueManager
  - Light
  - Plant
  - Enemy
  - Canvas
  - ZoneMoucon
  layers:
  - Default
  - TransparentFX
  - Ignore Raycast
  - 
  - Water
  - UI
  - 
  - 
  - 
  - 
  - 
  - 
  - 
  - 
  - 
  - 
  - 
  - 
  - 
  - 
  - 
  - 
  - 
  - 
  - 
  - 
  - 
  - 
  - 
  - 
  - 
  - 
  m_SortingLayers:
  - name: BackGround
    uniqueID: 935646119
    locked: 0
  - name: Ground
    uniqueID: 559150671
    locked: 0
  - name: OnGround
    uniqueID: 2371601207
    locked: 0
  - name: Player
    uniqueID: 3667720879
    locked: 0
  - name: UI
    uniqueID: 1143942973
    locked: 0
  - name: Default
    uniqueID: 0
    locked: 0
