%YAML 1.1
%TAG !u! tag:unity3d.com,2011:
--- !u!1 &1094642265076970379
GameObject:
  m_ObjectHideFlags: 0
  m_CorrespondingSourceObject: {fileID: 0}
  m_PrefabInstance: {fileID: 0}
  m_PrefabAsset: {fileID: 0}
  serializedVersion: 6
  m_Component:
  - component: {fileID: 1813288871033288068}
  - component: {fileID: 8194664265695373548}
  - component: {fileID: 5475038843384628671}
  m_Layer: 31
  m_Name: Layer1
  m_TagString: Untagged
  m_Icon: {fileID: 0}
  m_NavMeshLayer: 0
  m_StaticEditorFlags: 0
  m_IsActive: 1
--- !u!4 &1813288871033288068
Transform:
  m_ObjectHideFlags: 0
  m_CorrespondingSourceObject: {fileID: 0}
  m_PrefabInstance: {fileID: 0}
  m_PrefabAsset: {fileID: 0}
  m_GameObject: {fileID: 1094642265076970379}
  m_LocalRotation: {x: -0, y: -0, z: -0, w: 1}
  m_LocalPosition: {x: 0, y: 0, z: 0}
  m_LocalScale: {x: 1, y: 1, z: 1}
  m_Children: []
  m_Father: {fileID: 8649590547587269368}
  m_RootOrder: 0
  m_LocalEulerAnglesHint: {x: 0, y: 0, z: 0}
--- !u!1839735485 &8194664265695373548
Tilemap:
  m_ObjectHideFlags: 0
  m_CorrespondingSourceObject: {fileID: 0}
  m_PrefabInstance: {fileID: 0}
  m_PrefabAsset: {fileID: 0}
  m_GameObject: {fileID: 1094642265076970379}
  m_Enabled: 1
  m_Tiles:
  - first: {x: -1, y: -5, z: 0}
    second:
      m_TileIndex: 15
      m_TileSpriteIndex: 15
      m_TileMatrixIndex: 0
      m_TileColorIndex: 0
      m_ObjectToInstantiate: {fileID: 0}
      m_TileFlags: 1
      m_ColliderType: 1
  - first: {x: 0, y: -5, z: 0}
    second:
      m_TileIndex: 16
      m_TileSpriteIndex: 16
      m_TileMatrixIndex: 0
      m_TileColorIndex: 0
      m_ObjectToInstantiate: {fileID: 0}
      m_TileFlags: 1
      m_ColliderType: 1
  - first: {x: 1, y: -5, z: 0}
    second:
      m_TileIndex: 17
      m_TileSpriteIndex: 17
      m_TileMatrixIndex: 0
      m_TileColorIndex: 0
      m_ObjectToInstantiate: {fileID: 0}
      m_TileFlags: 1
      m_ColliderType: 1
  - first: {x: -1, y: -4, z: 0}
    second:
      m_TileIndex: 12
      m_TileSpriteIndex: 12
      m_TileMatrixIndex: 0
      m_TileColorIndex: 0
      m_ObjectToInstantiate: {fileID: 0}
      m_TileFlags: 1
      m_ColliderType: 1
  - first: {x: 0, y: -4, z: 0}
    second:
      m_TileIndex: 13
      m_TileSpriteIndex: 13
      m_TileMatrixIndex: 0
      m_TileColorIndex: 0
      m_ObjectToInstantiate: {fileID: 0}
      m_TileFlags: 1
      m_ColliderType: 1
  - first: {x: 1, y: -4, z: 0}
    second:
      m_TileIndex: 14
      m_TileSpriteIndex: 14
      m_TileMatrixIndex: 0
      m_TileColorIndex: 0
      m_ObjectToInstantiate: {fileID: 0}
      m_TileFlags: 1
      m_ColliderType: 1
  - first: {x: -1, y: -3, z: 0}
    second:
      m_TileIndex: 9
      m_TileSpriteIndex: 9
      m_TileMatrixIndex: 0
      m_TileColorIndex: 0
      m_ObjectToInstantiate: {fileID: 0}
      m_TileFlags: 1
      m_ColliderType: 1
  - first: {x: 0, y: -3, z: 0}
    second:
      m_TileIndex: 10
      m_TileSpriteIndex: 10
      m_TileMatrixIndex: 0
      m_TileColorIndex: 0
      m_ObjectToInstantiate: {fileID: 0}
      m_TileFlags: 1
      m_ColliderType: 1
  - first: {x: 1, y: -3, z: 0}
    second:
      m_TileIndex: 11
      m_TileSpriteIndex: 11
      m_TileMatrixIndex: 0
      m_TileColorIndex: 0
      m_ObjectToInstantiate: {fileID: 0}
      m_TileFlags: 1
      m_ColliderType: 1
  - first: {x: -1, y: -2, z: 0}
    second:
      m_TileIndex: 6
      m_TileSpriteIndex: 6
      m_TileMatrixIndex: 0
      m_TileColorIndex: 0
      m_ObjectToInstantiate: {fileID: 0}
      m_TileFlags: 1
      m_ColliderType: 1
  - first: {x: 0, y: -2, z: 0}
    second:
      m_TileIndex: 7
      m_TileSpriteIndex: 7
      m_TileMatrixIndex: 0
      m_TileColorIndex: 0
      m_ObjectToInstantiate: {fileID: 0}
      m_TileFlags: 1
      m_ColliderType: 1
  - first: {x: 1, y: -2, z: 0}
    second:
      m_TileIndex: 8
      m_TileSpriteIndex: 8
      m_TileMatrixIndex: 0
      m_TileColorIndex: 0
      m_ObjectToInstantiate: {fileID: 0}
      m_TileFlags: 1
      m_ColliderType: 1
  - first: {x: -1, y: -1, z: 0}
    second:
      m_TileIndex: 3
      m_TileSpriteIndex: 3
      m_TileMatrixIndex: 0
      m_TileColorIndex: 0
      m_ObjectToInstantiate: {fileID: 0}
      m_TileFlags: 1
      m_ColliderType: 1
  - first: {x: 0, y: -1, z: 0}
    second:
      m_TileIndex: 4
      m_TileSpriteIndex: 4
      m_TileMatrixIndex: 0
      m_TileColorIndex: 0
      m_ObjectToInstantiate: {fileID: 0}
      m_TileFlags: 1
      m_ColliderType: 1
  - first: {x: 1, y: -1, z: 0}
    second:
      m_TileIndex: 5
      m_TileSpriteIndex: 5
      m_TileMatrixIndex: 0
      m_TileColorIndex: 0
      m_ObjectToInstantiate: {fileID: 0}
      m_TileFlags: 1
      m_ColliderType: 1
  - first: {x: -1, y: 0, z: 0}
    second:
      m_TileIndex: 0
      m_TileSpriteIndex: 0
      m_TileMatrixIndex: 0
      m_TileColorIndex: 0
      m_ObjectToInstantiate: {fileID: 0}
      m_TileFlags: 1
      m_ColliderType: 1
  - first: {x: 0, y: 0, z: 0}
    second:
      m_TileIndex: 1
      m_TileSpriteIndex: 1
      m_TileMatrixIndex: 0
      m_TileColorIndex: 0
      m_ObjectToInstantiate: {fileID: 0}
      m_TileFlags: 1
      m_ColliderType: 1
  - first: {x: 1, y: 0, z: 0}
    second:
      m_TileIndex: 2
      m_TileSpriteIndex: 2
      m_TileMatrixIndex: 0
      m_TileColorIndex: 0
      m_ObjectToInstantiate: {fileID: 0}
      m_TileFlags: 1
      m_ColliderType: 1
  m_AnimatedTiles: {}
  m_TileAssetArray:
  - m_RefCount: 1
    m_Data: {fileID: 11400000, guid: f26e272cb09c9214c966ac3a1df689f2, type: 2}
  - m_RefCount: 1
    m_Data: {fileID: 11400000, guid: bc3f9829c727a564dadac794d3df919a, type: 2}
  - m_RefCount: 1
    m_Data: {fileID: 11400000, guid: f54678325f2b76441925824c8a498c84, type: 2}
  - m_RefCount: 1
    m_Data: {fileID: 11400000, guid: 7e0b5826e32e245458368f393404f6bb, type: 2}
  - m_RefCount: 1
    m_Data: {fileID: 11400000, guid: 86d6488c223588e44bcaa1e8b03b4e95, type: 2}
  - m_RefCount: 1
    m_Data: {fileID: 11400000, guid: de36b34a37917e74f9c6fb3fac5eb700, type: 2}
  - m_RefCount: 1
    m_Data: {fileID: 11400000, guid: 7d247be44170c784f99cb5f1be7443b3, type: 2}
  - m_RefCount: 1
    m_Data: {fileID: 11400000, guid: 6eba1bf6b0e5e514db93ae18f4f0948f, type: 2}
  - m_RefCount: 1
    m_Data: {fileID: 11400000, guid: 4bd9742902b90c4409cee58d8e87603f, type: 2}
  - m_RefCount: 1
    m_Data: {fileID: 11400000, guid: 3dfb60d9a0c1e8e4fa12674bbe20e6d0, type: 2}
  - m_RefCount: 1
    m_Data: {fileID: 11400000, guid: 5b9301634faccc14ca4a62fb7e428424, type: 2}
  - m_RefCount: 1
    m_Data: {fileID: 11400000, guid: 00f1c4ca29f0dc24292b157b92147302, type: 2}
  - m_RefCount: 1
    m_Data: {fileID: 11400000, guid: 1405c714801b4b64fbe4fe4ddb2e9f27, type: 2}
  - m_RefCount: 1
    m_Data: {fileID: 11400000, guid: 37ce0685774330745a5db6442884d89b, type: 2}
  - m_RefCount: 1
    m_Data: {fileID: 11400000, guid: 0d7c4656beb0f4641b20c07a57fdd458, type: 2}
  - m_RefCount: 1
    m_Data: {fileID: 11400000, guid: 8505a3c8e4634ba48adf70a633331456, type: 2}
  - m_RefCount: 1
    m_Data: {fileID: 11400000, guid: 17c7dc405bd241c4aa82bbdbfacbd2bd, type: 2}
  - m_RefCount: 1
    m_Data: {fileID: 11400000, guid: 9c9663bdee8523e4abae94806d5a18f4, type: 2}
  m_TileSpriteArray:
  - m_RefCount: 1
    m_Data: {fileID: 2925223055053187286, guid: 0cce0e659eb003f45baf5670fb43e20a,
      type: 3}
  - m_RefCount: 1
    m_Data: {fileID: -2239854260510084883, guid: 0cce0e659eb003f45baf5670fb43e20a,
      type: 3}
  - m_RefCount: 1
    m_Data: {fileID: 6464991594642764911, guid: 0cce0e659eb003f45baf5670fb43e20a,
      type: 3}
  - m_RefCount: 1
    m_Data: {fileID: 3487609821773505516, guid: 0cce0e659eb003f45baf5670fb43e20a,
      type: 3}
  - m_RefCount: 1
    m_Data: {fileID: 5522765379754101348, guid: 0cce0e659eb003f45baf5670fb43e20a,
      type: 3}
  - m_RefCount: 1
    m_Data: {fileID: 1797285435441849055, guid: 0cce0e659eb003f45baf5670fb43e20a,
      type: 3}
  - m_RefCount: 1
    m_Data: {fileID: -6316541396056041079, guid: 0cce0e659eb003f45baf5670fb43e20a,
      type: 3}
  - m_RefCount: 1
    m_Data: {fileID: -8541111115078213178, guid: 0cce0e659eb003f45baf5670fb43e20a,
      type: 3}
  - m_RefCount: 1
    m_Data: {fileID: -3982574928687020035, guid: 0cce0e659eb003f45baf5670fb43e20a,
      type: 3}
  - m_RefCount: 1
    m_Data: {fileID: -6163004077260331154, guid: 0cce0e659eb003f45baf5670fb43e20a,
      type: 3}
  - m_RefCount: 1
    m_Data: {fileID: -7226762832633477310, guid: 0cce0e659eb003f45baf5670fb43e20a,
      type: 3}
  - m_RefCount: 1
    m_Data: {fileID: 1411357350796246814, guid: 0cce0e659eb003f45baf5670fb43e20a,
      type: 3}
  - m_RefCount: 1
    m_Data: {fileID: 5599627992110359323, guid: 0cce0e659eb003f45baf5670fb43e20a,
      type: 3}
  - m_RefCount: 1
    m_Data: {fileID: 5256964184885218633, guid: 0cce0e659eb003f45baf5670fb43e20a,
      type: 3}
  - m_RefCount: 1
    m_Data: {fileID: -5821377230194254378, guid: 0cce0e659eb003f45baf5670fb43e20a,
      type: 3}
  - m_RefCount: 1
    m_Data: {fileID: -3284390811800755839, guid: 0cce0e659eb003f45baf5670fb43e20a,
      type: 3}
  - m_RefCount: 1
    m_Data: {fileID: -4234961088082266028, guid: 0cce0e659eb003f45baf5670fb43e20a,
      type: 3}
  - m_RefCount: 1
    m_Data: {fileID: -5469741455050689167, guid: 0cce0e659eb003f45baf5670fb43e20a,
      type: 3}
  m_TileMatrixArray:
  - m_RefCount: 18
    m_Data:
      e00: 1
      e01: 0
      e02: 0
      e03: 0
      e10: 0
      e11: 1
      e12: 0
      e13: 0
      e20: 0
      e21: 0
      e22: 1
      e23: 0
      e30: 0
      e31: 0
      e32: 0
      e33: 1
  m_TileColorArray:
  - m_RefCount: 18
    m_Data: {r: 1, g: 1, b: 1, a: 1}
  m_AnimationFrameRate: 1
  m_Color: {r: 1, g: 1, b: 1, a: 1}
  m_Origin: {x: -1, y: -5, z: 0}
  m_Size: {x: 3, y: 6, z: 1}
  m_TileAnchor: {x: 0.5, y: 0.5, z: 0}
  m_TileOrientation: 0
  m_TileOrientationMatrix:
    e00: 1
    e01: 0
    e02: 0
    e03: 0
    e10: 0
    e11: 1
    e12: 0
    e13: 0
    e20: 0
    e21: 0
    e22: 1
    e23: 0
    e30: 0
    e31: 0
    e32: 0
    e33: 1
--- !u!483693784 &5475038843384628671
TilemapRenderer:
  m_ObjectHideFlags: 0
  m_CorrespondingSourceObject: {fileID: 0}
  m_PrefabInstance: {fileID: 0}
  m_PrefabAsset: {fileID: 0}
  m_GameObject: {fileID: 1094642265076970379}
  m_Enabled: 0
  m_CastShadows: 0
  m_ReceiveShadows: 0
  m_DynamicOccludee: 0
  m_MotionVectors: 1
  m_LightProbeUsage: 0
  m_ReflectionProbeUsage: 0
  m_RenderingLayerMask: 1
  m_RendererPriority: 0
  m_Materials:
  - {fileID: 10754, guid: 0000000000000000f000000000000000, type: 0}
  m_StaticBatchInfo:
    firstSubMesh: 0
    subMeshCount: 0
  m_StaticBatchRoot: {fileID: 0}
  m_ProbeAnchor: {fileID: 0}
  m_LightProbeVolumeOverride: {fileID: 0}
  m_ScaleInLightmap: 1
  m_ReceiveGI: 1
  m_PreserveUVs: 0
  m_IgnoreNormalsForChartDetection: 0
  m_ImportantGI: 0
  m_StitchLightmapSeams: 1
  m_SelectedEditorRenderState: 0
  m_MinimumChartSize: 4
  m_AutoUVMaxDistance: 0.5
  m_AutoUVMaxAngle: 89
  m_LightmapParameters: {fileID: 0}
  m_SortingLayerID: 0
  m_SortingLayer: 0
  m_SortingOrder: 0
  m_ChunkSize: {x: 32, y: 32, z: 32}
  m_ChunkCullingBounds: {x: 0, y: 0, z: 0}
  m_MaxChunkCount: 16
  m_MaxFrameAge: 16
  m_SortOrder: 0
  m_Mode: 0
  m_DetectChunkCullingBounds: 0
  m_MaskInteraction: 0
--- !u!1 &6719899943001949044
GameObject:
  m_ObjectHideFlags: 0
  m_CorrespondingSourceObject: {fileID: 0}
  m_PrefabInstance: {fileID: 0}
  m_PrefabAsset: {fileID: 0}
  serializedVersion: 6
  m_Component:
  - component: {fileID: 8649590547587269368}
  - component: {fileID: 6601309916129623872}
  m_Layer: 31
  m_Name: fence_alt
  m_TagString: Untagged
  m_Icon: {fileID: 0}
  m_NavMeshLayer: 0
  m_StaticEditorFlags: 0
  m_IsActive: 1
--- !u!4 &8649590547587269368
Transform:
  m_ObjectHideFlags: 0
  m_CorrespondingSourceObject: {fileID: 0}
  m_PrefabInstance: {fileID: 0}
  m_PrefabAsset: {fileID: 0}
  m_GameObject: {fileID: 6719899943001949044}
  m_LocalRotation: {x: 0, y: 0, z: 0, w: 1}
  m_LocalPosition: {x: 0, y: 0, z: 0}
  m_LocalScale: {x: 1, y: 1, z: 1}
  m_Children:
  - {fileID: 1813288871033288068}
  m_Father: {fileID: 0}
  m_RootOrder: 0
  m_LocalEulerAnglesHint: {x: 0, y: 0, z: 0}
--- !u!156049354 &6601309916129623872
Grid:
  m_ObjectHideFlags: 0
  m_CorrespondingSourceObject: {fileID: 0}
  m_PrefabInstance: {fileID: 0}
  m_PrefabAsset: {fileID: 0}
  m_GameObject: {fileID: 6719899943001949044}
  m_Enabled: 1
  m_CellSize: {x: 1, y: 1, z: 0}
  m_CellGap: {x: 0, y: 0, z: 0}
  m_CellLayout: 0
  m_CellSwizzle: 0
--- !u!114 &5567932831826675704
MonoBehaviour:
  m_ObjectHideFlags: 0
  m_CorrespondingSourceObject: {fileID: 0}
  m_PrefabInstance: {fileID: 0}
  m_PrefabAsset: {fileID: 0}
  m_GameObject: {fileID: 0}
  m_Enabled: 1
  m_EditorHideFlags: 0
  m_Script: {fileID: 12395, guid: 0000000000000000e000000000000000, type: 0}
  m_Name: Palette Settings
  m_EditorClassIdentifier: 
  cellSizing: 0
