%YAML 1.1
%TAG !u! tag:unity3d.com,2011:
--- !u!1 &992097228611526925
GameObject:
  m_ObjectHideFlags: 0
  m_CorrespondingSourceObject: {fileID: 0}
  m_PrefabInstance: {fileID: 0}
  m_PrefabAsset: {fileID: 0}
  serializedVersion: 6
  m_Component:
  - component: {fileID: 1802856163157041899}
  - component: {fileID: 5398795914958680670}
  m_Layer: 31
  m_Name: plowed_soil
  m_TagString: Untagged
  m_Icon: {fileID: 0}
  m_NavMeshLayer: 0
  m_StaticEditorFlags: 0
  m_IsActive: 1
--- !u!4 &1802856163157041899
Transform:
  m_ObjectHideFlags: 0
  m_CorrespondingSourceObject: {fileID: 0}
  m_PrefabInstance: {fileID: 0}
  m_PrefabAsset: {fileID: 0}
  m_GameObject: {fileID: 992097228611526925}
  m_LocalRotation: {x: 0, y: 0, z: 0, w: 1}
  m_LocalPosition: {x: 0, y: 0, z: 0}
  m_LocalScale: {x: 1, y: 1, z: 1}
  m_Children:
  - {fileID: 7270185434605112866}
  m_Father: {fileID: 0}
  m_RootOrder: 0
  m_LocalEulerAnglesHint: {x: 0, y: 0, z: 0}
--- !u!156049354 &5398795914958680670
Grid:
  m_ObjectHideFlags: 0
  m_CorrespondingSourceObject: {fileID: 0}
  m_PrefabInstance: {fileID: 0}
  m_PrefabAsset: {fileID: 0}
  m_GameObject: {fileID: 992097228611526925}
  m_Enabled: 1
  m_CellSize: {x: 1, y: 1, z: 0}
  m_CellGap: {x: 0, y: 0, z: 0}
  m_CellLayout: 0
  m_CellSwizzle: 0
--- !u!1 &7243024914324868233
GameObject:
  m_ObjectHideFlags: 0
  m_CorrespondingSourceObject: {fileID: 0}
  m_PrefabInstance: {fileID: 0}
  m_PrefabAsset: {fileID: 0}
  serializedVersion: 6
  m_Component:
  - component: {fileID: 7270185434605112866}
  - component: {fileID: 9205023202809353135}
  - component: {fileID: 7714693011830530421}
  m_Layer: 31
  m_Name: Layer1
  m_TagString: Untagged
  m_Icon: {fileID: 0}
  m_NavMeshLayer: 0
  m_StaticEditorFlags: 0
  m_IsActive: 1
--- !u!4 &7270185434605112866
Transform:
  m_ObjectHideFlags: 0
  m_CorrespondingSourceObject: {fileID: 0}
  m_PrefabInstance: {fileID: 0}
  m_PrefabAsset: {fileID: 0}
  m_GameObject: {fileID: 7243024914324868233}
  m_LocalRotation: {x: -0, y: -0, z: -0, w: 1}
  m_LocalPosition: {x: 0, y: 0, z: 0}
  m_LocalScale: {x: 1, y: 1, z: 1}
  m_Children: []
  m_Father: {fileID: 1802856163157041899}
  m_RootOrder: 0
  m_LocalEulerAnglesHint: {x: 0, y: 0, z: 0}
--- !u!1839735485 &9205023202809353135
Tilemap:
  m_ObjectHideFlags: 0
  m_CorrespondingSourceObject: {fileID: 0}
  m_PrefabInstance: {fileID: 0}
  m_PrefabAsset: {fileID: 0}
  m_GameObject: {fileID: 7243024914324868233}
  m_Enabled: 1
  m_Tiles:
  - first: {x: -1, y: -6, z: 0}
    second:
      m_TileIndex: 15
      m_TileSpriteIndex: 15
      m_TileMatrixIndex: 0
      m_TileColorIndex: 0
      m_ObjectToInstantiate: {fileID: 0}
      m_TileFlags: 1
      m_ColliderType: 1
  - first: {x: 0, y: -6, z: 0}
    second:
      m_TileIndex: 16
      m_TileSpriteIndex: 16
      m_TileMatrixIndex: 0
      m_TileColorIndex: 0
      m_ObjectToInstantiate: {fileID: 0}
      m_TileFlags: 1
      m_ColliderType: 1
  - first: {x: 1, y: -6, z: 0}
    second:
      m_TileIndex: 17
      m_TileSpriteIndex: 17
      m_TileMatrixIndex: 0
      m_TileColorIndex: 0
      m_ObjectToInstantiate: {fileID: 0}
      m_TileFlags: 1
      m_ColliderType: 1
  - first: {x: -1, y: -5, z: 0}
    second:
      m_TileIndex: 12
      m_TileSpriteIndex: 12
      m_TileMatrixIndex: 0
      m_TileColorIndex: 0
      m_ObjectToInstantiate: {fileID: 0}
      m_TileFlags: 1
      m_ColliderType: 1
  - first: {x: 0, y: -5, z: 0}
    second:
      m_TileIndex: 13
      m_TileSpriteIndex: 13
      m_TileMatrixIndex: 0
      m_TileColorIndex: 0
      m_ObjectToInstantiate: {fileID: 0}
      m_TileFlags: 1
      m_ColliderType: 1
  - first: {x: 1, y: -5, z: 0}
    second:
      m_TileIndex: 14
      m_TileSpriteIndex: 14
      m_TileMatrixIndex: 0
      m_TileColorIndex: 0
      m_ObjectToInstantiate: {fileID: 0}
      m_TileFlags: 1
      m_ColliderType: 1
  - first: {x: -1, y: -4, z: 0}
    second:
      m_TileIndex: 9
      m_TileSpriteIndex: 9
      m_TileMatrixIndex: 0
      m_TileColorIndex: 0
      m_ObjectToInstantiate: {fileID: 0}
      m_TileFlags: 1
      m_ColliderType: 1
  - first: {x: 0, y: -4, z: 0}
    second:
      m_TileIndex: 10
      m_TileSpriteIndex: 10
      m_TileMatrixIndex: 0
      m_TileColorIndex: 0
      m_ObjectToInstantiate: {fileID: 0}
      m_TileFlags: 1
      m_ColliderType: 1
  - first: {x: 1, y: -4, z: 0}
    second:
      m_TileIndex: 11
      m_TileSpriteIndex: 11
      m_TileMatrixIndex: 0
      m_TileColorIndex: 0
      m_ObjectToInstantiate: {fileID: 0}
      m_TileFlags: 1
      m_ColliderType: 1
  - first: {x: -1, y: -3, z: 0}
    second:
      m_TileIndex: 6
      m_TileSpriteIndex: 6
      m_TileMatrixIndex: 0
      m_TileColorIndex: 0
      m_ObjectToInstantiate: {fileID: 0}
      m_TileFlags: 1
      m_ColliderType: 1
  - first: {x: 0, y: -3, z: 0}
    second:
      m_TileIndex: 7
      m_TileSpriteIndex: 7
      m_TileMatrixIndex: 0
      m_TileColorIndex: 0
      m_ObjectToInstantiate: {fileID: 0}
      m_TileFlags: 1
      m_ColliderType: 1
  - first: {x: 1, y: -3, z: 0}
    second:
      m_TileIndex: 8
      m_TileSpriteIndex: 8
      m_TileMatrixIndex: 0
      m_TileColorIndex: 0
      m_ObjectToInstantiate: {fileID: 0}
      m_TileFlags: 1
      m_ColliderType: 1
  - first: {x: -1, y: -2, z: 0}
    second:
      m_TileIndex: 3
      m_TileSpriteIndex: 3
      m_TileMatrixIndex: 0
      m_TileColorIndex: 0
      m_ObjectToInstantiate: {fileID: 0}
      m_TileFlags: 1
      m_ColliderType: 1
  - first: {x: 0, y: -2, z: 0}
    second:
      m_TileIndex: 4
      m_TileSpriteIndex: 4
      m_TileMatrixIndex: 0
      m_TileColorIndex: 0
      m_ObjectToInstantiate: {fileID: 0}
      m_TileFlags: 1
      m_ColliderType: 1
  - first: {x: 1, y: -2, z: 0}
    second:
      m_TileIndex: 5
      m_TileSpriteIndex: 5
      m_TileMatrixIndex: 0
      m_TileColorIndex: 0
      m_ObjectToInstantiate: {fileID: 0}
      m_TileFlags: 1
      m_ColliderType: 1
  - first: {x: -1, y: -1, z: 0}
    second:
      m_TileIndex: 0
      m_TileSpriteIndex: 0
      m_TileMatrixIndex: 0
      m_TileColorIndex: 0
      m_ObjectToInstantiate: {fileID: 0}
      m_TileFlags: 1
      m_ColliderType: 1
  - first: {x: 0, y: -1, z: 0}
    second:
      m_TileIndex: 1
      m_TileSpriteIndex: 1
      m_TileMatrixIndex: 0
      m_TileColorIndex: 0
      m_ObjectToInstantiate: {fileID: 0}
      m_TileFlags: 1
      m_ColliderType: 1
  - first: {x: 1, y: -1, z: 0}
    second:
      m_TileIndex: 2
      m_TileSpriteIndex: 2
      m_TileMatrixIndex: 0
      m_TileColorIndex: 0
      m_ObjectToInstantiate: {fileID: 0}
      m_TileFlags: 1
      m_ColliderType: 1
  m_AnimatedTiles: {}
  m_TileAssetArray:
  - m_RefCount: 1
    m_Data: {fileID: 11400000, guid: f212b24ae93813043b1d7e7268079c62, type: 2}
  - m_RefCount: 1
    m_Data: {fileID: 11400000, guid: f583650300ae5f640aeb889c6e58b1a4, type: 2}
  - m_RefCount: 1
    m_Data: {fileID: 11400000, guid: ab62765275e0d6740a1e267ce7af0b03, type: 2}
  - m_RefCount: 1
    m_Data: {fileID: 11400000, guid: 33b4b30803364d045bcde70549b4fa34, type: 2}
  - m_RefCount: 1
    m_Data: {fileID: 11400000, guid: 9abbe7971a54f234aa9b298157d5cd39, type: 2}
  - m_RefCount: 1
    m_Data: {fileID: 11400000, guid: bae43e4dbd4eabc4396e95bcc8130a83, type: 2}
  - m_RefCount: 1
    m_Data: {fileID: 11400000, guid: c092ca8671d77f44db78ec5e3c3b6069, type: 2}
  - m_RefCount: 1
    m_Data: {fileID: 11400000, guid: 8fbdd312f3d5cd742b60ad0a750510e1, type: 2}
  - m_RefCount: 1
    m_Data: {fileID: 11400000, guid: db2b908b79b1faa49aaf826685868bee, type: 2}
  - m_RefCount: 1
    m_Data: {fileID: 11400000, guid: d4a2d6bc9d1dde64880a7b2d0ebd1f1a, type: 2}
  - m_RefCount: 1
    m_Data: {fileID: 11400000, guid: 112a32b98ce0421459652faaba9bd315, type: 2}
  - m_RefCount: 1
    m_Data: {fileID: 11400000, guid: e7df9a171eece774cb97cbc60859c65a, type: 2}
  - m_RefCount: 1
    m_Data: {fileID: 11400000, guid: b731133e59b27d547bb4bb1a8c31aff3, type: 2}
  - m_RefCount: 1
    m_Data: {fileID: 11400000, guid: f9e17bad55d9e36468b75dbd4a352f80, type: 2}
  - m_RefCount: 1
    m_Data: {fileID: 11400000, guid: 8512f0c68f2e5014795d3390229c8297, type: 2}
  - m_RefCount: 1
    m_Data: {fileID: 11400000, guid: 862a8a38741fac840a5d5451a6179ab3, type: 2}
  - m_RefCount: 1
    m_Data: {fileID: 11400000, guid: 1c2deb53d1f50ed48ba45cc95be82e4c, type: 2}
  - m_RefCount: 1
    m_Data: {fileID: 11400000, guid: e8d83cb8d80e8d74f92c0927bb9a4f35, type: 2}
  m_TileSpriteArray:
  - m_RefCount: 1
    m_Data: {fileID: 4596554697545947059, guid: 42abb4d9e04858f478bd942824dcacd9,
      type: 3}
  - m_RefCount: 1
    m_Data: {fileID: 7900488442712590889, guid: 42abb4d9e04858f478bd942824dcacd9,
      type: 3}
  - m_RefCount: 1
    m_Data: {fileID: -6001545553838377008, guid: 42abb4d9e04858f478bd942824dcacd9,
      type: 3}
  - m_RefCount: 1
    m_Data: {fileID: -3378368704775453628, guid: 42abb4d9e04858f478bd942824dcacd9,
      type: 3}
  - m_RefCount: 1
    m_Data: {fileID: -9093132536975506829, guid: 42abb4d9e04858f478bd942824dcacd9,
      type: 3}
  - m_RefCount: 1
    m_Data: {fileID: -6431610242862505759, guid: 42abb4d9e04858f478bd942824dcacd9,
      type: 3}
  - m_RefCount: 1
    m_Data: {fileID: 5582201185933975075, guid: 42abb4d9e04858f478bd942824dcacd9,
      type: 3}
  - m_RefCount: 1
    m_Data: {fileID: -8082064095864835611, guid: 42abb4d9e04858f478bd942824dcacd9,
      type: 3}
  - m_RefCount: 1
    m_Data: {fileID: 3203025598889537456, guid: 42abb4d9e04858f478bd942824dcacd9,
      type: 3}
  - m_RefCount: 1
    m_Data: {fileID: -272039971674052316, guid: 42abb4d9e04858f478bd942824dcacd9,
      type: 3}
  - m_RefCount: 1
    m_Data: {fileID: 4548234534049708230, guid: 42abb4d9e04858f478bd942824dcacd9,
      type: 3}
  - m_RefCount: 1
    m_Data: {fileID: -5056774386504681824, guid: 42abb4d9e04858f478bd942824dcacd9,
      type: 3}
  - m_RefCount: 1
    m_Data: {fileID: 8974288284070928980, guid: 42abb4d9e04858f478bd942824dcacd9,
      type: 3}
  - m_RefCount: 1
    m_Data: {fileID: 763758430049000536, guid: 42abb4d9e04858f478bd942824dcacd9, type: 3}
  - m_RefCount: 1
    m_Data: {fileID: 940667243366129738, guid: 42abb4d9e04858f478bd942824dcacd9, type: 3}
  - m_RefCount: 1
    m_Data: {fileID: -7497384717237923557, guid: 42abb4d9e04858f478bd942824dcacd9,
      type: 3}
  - m_RefCount: 1
    m_Data: {fileID: 6642867118566534519, guid: 42abb4d9e04858f478bd942824dcacd9,
      type: 3}
  - m_RefCount: 1
    m_Data: {fileID: -2235558357700486965, guid: 42abb4d9e04858f478bd942824dcacd9,
      type: 3}
  m_TileMatrixArray:
  - m_RefCount: 18
    m_Data:
      e00: 1
      e01: 0
      e02: 0
      e03: 0
      e10: 0
      e11: 1
      e12: 0
      e13: 0
      e20: 0
      e21: 0
      e22: 1
      e23: 0
      e30: 0
      e31: 0
      e32: 0
      e33: 1
  m_TileColorArray:
  - m_RefCount: 18
    m_Data: {r: 1, g: 1, b: 1, a: 1}
  m_AnimationFrameRate: 1
  m_Color: {r: 1, g: 1, b: 1, a: 1}
  m_Origin: {x: -1, y: -6, z: 0}
  m_Size: {x: 3, y: 6, z: 1}
  m_TileAnchor: {x: 0.5, y: 0.5, z: 0}
  m_TileOrientation: 0
  m_TileOrientationMatrix:
    e00: 1
    e01: 0
    e02: 0
    e03: 0
    e10: 0
    e11: 1
    e12: 0
    e13: 0
    e20: 0
    e21: 0
    e22: 1
    e23: 0
    e30: 0
    e31: 0
    e32: 0
    e33: 1
--- !u!483693784 &7714693011830530421
TilemapRenderer:
  m_ObjectHideFlags: 0
  m_CorrespondingSourceObject: {fileID: 0}
  m_PrefabInstance: {fileID: 0}
  m_PrefabAsset: {fileID: 0}
  m_GameObject: {fileID: 7243024914324868233}
  m_Enabled: 0
  m_CastShadows: 0
  m_ReceiveShadows: 0
  m_DynamicOccludee: 0
  m_MotionVectors: 1
  m_LightProbeUsage: 0
  m_ReflectionProbeUsage: 0
  m_RenderingLayerMask: 1
  m_RendererPriority: 0
  m_Materials:
  - {fileID: 10754, guid: 0000000000000000f000000000000000, type: 0}
  m_StaticBatchInfo:
    firstSubMesh: 0
    subMeshCount: 0
  m_StaticBatchRoot: {fileID: 0}
  m_ProbeAnchor: {fileID: 0}
  m_LightProbeVolumeOverride: {fileID: 0}
  m_ScaleInLightmap: 1
  m_ReceiveGI: 1
  m_PreserveUVs: 0
  m_IgnoreNormalsForChartDetection: 0
  m_ImportantGI: 0
  m_StitchLightmapSeams: 1
  m_SelectedEditorRenderState: 0
  m_MinimumChartSize: 4
  m_AutoUVMaxDistance: 0.5
  m_AutoUVMaxAngle: 89
  m_LightmapParameters: {fileID: 0}
  m_SortingLayerID: 0
  m_SortingLayer: 0
  m_SortingOrder: 0
  m_ChunkSize: {x: 32, y: 32, z: 32}
  m_ChunkCullingBounds: {x: 0, y: 0, z: 0}
  m_MaxChunkCount: 16
  m_MaxFrameAge: 16
  m_SortOrder: 0
  m_Mode: 0
  m_DetectChunkCullingBounds: 0
  m_MaskInteraction: 0
--- !u!114 &3966274072201768471
MonoBehaviour:
  m_ObjectHideFlags: 0
  m_CorrespondingSourceObject: {fileID: 0}
  m_PrefabInstance: {fileID: 0}
  m_PrefabAsset: {fileID: 0}
  m_GameObject: {fileID: 0}
  m_Enabled: 1
  m_EditorHideFlags: 0
  m_Script: {fileID: 12395, guid: 0000000000000000e000000000000000, type: 0}
  m_Name: Palette Settings
  m_EditorClassIdentifier: 
  cellSizing: 0
