%YAML 1.1
%TAG !u! tag:unity3d.com,2011:
--- !u!1 &1684754366139197006
GameObject:
  m_ObjectHideFlags: 0
  m_CorrespondingSourceObject: {fileID: 0}
  m_PrefabInstance: {fileID: 0}
  m_PrefabAsset: {fileID: 0}
  serializedVersion: 6
  m_Component:
  - component: {fileID: 8380077216917166125}
  - component: {fileID: 6113005631039143801}
  - component: {fileID: 2903161013525941467}
  m_Layer: 31
  m_Name: Layer1
  m_TagString: Untagged
  m_Icon: {fileID: 0}
  m_NavMeshLayer: 0
  m_StaticEditorFlags: 0
  m_IsActive: 1
--- !u!4 &8380077216917166125
Transform:
  m_ObjectHideFlags: 0
  m_CorrespondingSourceObject: {fileID: 0}
  m_PrefabInstance: {fileID: 0}
  m_PrefabAsset: {fileID: 0}
  m_GameObject: {fileID: 1684754366139197006}
  m_LocalRotation: {x: -0, y: -0, z: -0, w: 1}
  m_LocalPosition: {x: 0, y: 0, z: 0}
  m_LocalScale: {x: 1, y: 1, z: 1}
  m_Children: []
  m_Father: {fileID: 4568477336242677004}
  m_RootOrder: 0
  m_LocalEulerAnglesHint: {x: 0, y: 0, z: 0}
--- !u!1839735485 &6113005631039143801
Tilemap:
  m_ObjectHideFlags: 0
  m_CorrespondingSourceObject: {fileID: 0}
  m_PrefabInstance: {fileID: 0}
  m_PrefabAsset: {fileID: 0}
  m_GameObject: {fileID: 1684754366139197006}
  m_Enabled: 1
  m_Tiles:
  - first: {x: -1, y: -10, z: 0}
    second:
      m_TileIndex: 21
      m_TileSpriteIndex: 21
      m_TileMatrixIndex: 0
      m_TileColorIndex: 0
      m_ObjectToInstantiate: {fileID: 0}
      m_TileFlags: 1
      m_ColliderType: 1
  - first: {x: 0, y: -10, z: 0}
    second:
      m_TileIndex: 22
      m_TileSpriteIndex: 22
      m_TileMatrixIndex: 0
      m_TileColorIndex: 0
      m_ObjectToInstantiate: {fileID: 0}
      m_TileFlags: 1
      m_ColliderType: 1
  - first: {x: 1, y: -10, z: 0}
    second:
      m_TileIndex: 23
      m_TileSpriteIndex: 23
      m_TileMatrixIndex: 0
      m_TileColorIndex: 0
      m_ObjectToInstantiate: {fileID: 0}
      m_TileFlags: 1
      m_ColliderType: 1
  - first: {x: -1, y: -9, z: 0}
    second:
      m_TileIndex: 18
      m_TileSpriteIndex: 18
      m_TileMatrixIndex: 0
      m_TileColorIndex: 0
      m_ObjectToInstantiate: {fileID: 0}
      m_TileFlags: 1
      m_ColliderType: 1
  - first: {x: 0, y: -9, z: 0}
    second:
      m_TileIndex: 19
      m_TileSpriteIndex: 19
      m_TileMatrixIndex: 0
      m_TileColorIndex: 0
      m_ObjectToInstantiate: {fileID: 0}
      m_TileFlags: 1
      m_ColliderType: 1
  - first: {x: 1, y: -9, z: 0}
    second:
      m_TileIndex: 20
      m_TileSpriteIndex: 20
      m_TileMatrixIndex: 0
      m_TileColorIndex: 0
      m_ObjectToInstantiate: {fileID: 0}
      m_TileFlags: 1
      m_ColliderType: 1
  - first: {x: -1, y: -8, z: 0}
    second:
      m_TileIndex: 15
      m_TileSpriteIndex: 15
      m_TileMatrixIndex: 0
      m_TileColorIndex: 0
      m_ObjectToInstantiate: {fileID: 0}
      m_TileFlags: 1
      m_ColliderType: 1
  - first: {x: 0, y: -8, z: 0}
    second:
      m_TileIndex: 16
      m_TileSpriteIndex: 16
      m_TileMatrixIndex: 0
      m_TileColorIndex: 0
      m_ObjectToInstantiate: {fileID: 0}
      m_TileFlags: 1
      m_ColliderType: 1
  - first: {x: 1, y: -8, z: 0}
    second:
      m_TileIndex: 17
      m_TileSpriteIndex: 17
      m_TileMatrixIndex: 0
      m_TileColorIndex: 0
      m_ObjectToInstantiate: {fileID: 0}
      m_TileFlags: 1
      m_ColliderType: 1
  - first: {x: -1, y: -7, z: 0}
    second:
      m_TileIndex: 12
      m_TileSpriteIndex: 12
      m_TileMatrixIndex: 0
      m_TileColorIndex: 0
      m_ObjectToInstantiate: {fileID: 0}
      m_TileFlags: 1
      m_ColliderType: 1
  - first: {x: 0, y: -7, z: 0}
    second:
      m_TileIndex: 13
      m_TileSpriteIndex: 13
      m_TileMatrixIndex: 0
      m_TileColorIndex: 0
      m_ObjectToInstantiate: {fileID: 0}
      m_TileFlags: 1
      m_ColliderType: 1
  - first: {x: 1, y: -7, z: 0}
    second:
      m_TileIndex: 14
      m_TileSpriteIndex: 14
      m_TileMatrixIndex: 0
      m_TileColorIndex: 0
      m_ObjectToInstantiate: {fileID: 0}
      m_TileFlags: 1
      m_ColliderType: 1
  - first: {x: -1, y: -6, z: 0}
    second:
      m_TileIndex: 9
      m_TileSpriteIndex: 9
      m_TileMatrixIndex: 0
      m_TileColorIndex: 0
      m_ObjectToInstantiate: {fileID: 0}
      m_TileFlags: 1
      m_ColliderType: 1
  - first: {x: 0, y: -6, z: 0}
    second:
      m_TileIndex: 10
      m_TileSpriteIndex: 10
      m_TileMatrixIndex: 0
      m_TileColorIndex: 0
      m_ObjectToInstantiate: {fileID: 0}
      m_TileFlags: 1
      m_ColliderType: 1
  - first: {x: 1, y: -6, z: 0}
    second:
      m_TileIndex: 11
      m_TileSpriteIndex: 11
      m_TileMatrixIndex: 0
      m_TileColorIndex: 0
      m_ObjectToInstantiate: {fileID: 0}
      m_TileFlags: 1
      m_ColliderType: 1
  - first: {x: -1, y: -5, z: 0}
    second:
      m_TileIndex: 8
      m_TileSpriteIndex: 8
      m_TileMatrixIndex: 0
      m_TileColorIndex: 0
      m_ObjectToInstantiate: {fileID: 0}
      m_TileFlags: 1
      m_ColliderType: 1
  - first: {x: -1, y: -4, z: 0}
    second:
      m_TileIndex: 7
      m_TileSpriteIndex: 7
      m_TileMatrixIndex: 0
      m_TileColorIndex: 0
      m_ObjectToInstantiate: {fileID: 0}
      m_TileFlags: 1
      m_ColliderType: 1
  - first: {x: -1, y: -3, z: 0}
    second:
      m_TileIndex: 6
      m_TileSpriteIndex: 6
      m_TileMatrixIndex: 0
      m_TileColorIndex: 0
      m_ObjectToInstantiate: {fileID: 0}
      m_TileFlags: 1
      m_ColliderType: 1
  - first: {x: -1, y: -2, z: 0}
    second:
      m_TileIndex: 3
      m_TileSpriteIndex: 3
      m_TileMatrixIndex: 0
      m_TileColorIndex: 0
      m_ObjectToInstantiate: {fileID: 0}
      m_TileFlags: 1
      m_ColliderType: 1
  - first: {x: 0, y: -2, z: 0}
    second:
      m_TileIndex: 4
      m_TileSpriteIndex: 4
      m_TileMatrixIndex: 0
      m_TileColorIndex: 0
      m_ObjectToInstantiate: {fileID: 0}
      m_TileFlags: 1
      m_ColliderType: 1
  - first: {x: 1, y: -2, z: 0}
    second:
      m_TileIndex: 5
      m_TileSpriteIndex: 5
      m_TileMatrixIndex: 0
      m_TileColorIndex: 0
      m_ObjectToInstantiate: {fileID: 0}
      m_TileFlags: 1
      m_ColliderType: 1
  - first: {x: -1, y: -1, z: 0}
    second:
      m_TileIndex: 0
      m_TileSpriteIndex: 0
      m_TileMatrixIndex: 0
      m_TileColorIndex: 0
      m_ObjectToInstantiate: {fileID: 0}
      m_TileFlags: 1
      m_ColliderType: 1
  - first: {x: 0, y: -1, z: 0}
    second:
      m_TileIndex: 1
      m_TileSpriteIndex: 1
      m_TileMatrixIndex: 0
      m_TileColorIndex: 0
      m_ObjectToInstantiate: {fileID: 0}
      m_TileFlags: 1
      m_ColliderType: 1
  - first: {x: 1, y: -1, z: 0}
    second:
      m_TileIndex: 2
      m_TileSpriteIndex: 2
      m_TileMatrixIndex: 0
      m_TileColorIndex: 0
      m_ObjectToInstantiate: {fileID: 0}
      m_TileFlags: 1
      m_ColliderType: 1
  m_AnimatedTiles: {}
  m_TileAssetArray:
  - m_RefCount: 1
    m_Data: {fileID: 11400000, guid: ba23eaa5d84d5ab4f8f5d82e506bf9e7, type: 2}
  - m_RefCount: 1
    m_Data: {fileID: 11400000, guid: 35b2e95628b1f61488cc669a9e7d2ffc, type: 2}
  - m_RefCount: 1
    m_Data: {fileID: 11400000, guid: f14ae7e1ca770bb41a52807ff9576184, type: 2}
  - m_RefCount: 1
    m_Data: {fileID: 11400000, guid: 32afdcbf6e43fd345ba25ad74cbd3777, type: 2}
  - m_RefCount: 1
    m_Data: {fileID: 11400000, guid: 312ae7e7ba952f34ab5998df439d6699, type: 2}
  - m_RefCount: 1
    m_Data: {fileID: 11400000, guid: 5b6344573e6ce8849955d38ca6884ed1, type: 2}
  - m_RefCount: 1
    m_Data: {fileID: 11400000, guid: 194a59fe9a8521741a1d9016c5e7da9f, type: 2}
  - m_RefCount: 1
    m_Data: {fileID: 11400000, guid: e491bb4e218494143b2e0551738cbf3d, type: 2}
  - m_RefCount: 1
    m_Data: {fileID: 11400000, guid: 3e2f56c4a5dd2604bb6599b0ca1e1f1f, type: 2}
  - m_RefCount: 1
    m_Data: {fileID: 11400000, guid: c72503954ce92904695f1c0d3f950782, type: 2}
  - m_RefCount: 1
    m_Data: {fileID: 11400000, guid: 298a937c6b396a648966ef8849ce70d8, type: 2}
  - m_RefCount: 1
    m_Data: {fileID: 11400000, guid: f8e1a94d3d345b141b587236cc5bb02a, type: 2}
  - m_RefCount: 1
    m_Data: {fileID: 11400000, guid: bcdd67af2b027814187201ddf872890a, type: 2}
  - m_RefCount: 1
    m_Data: {fileID: 11400000, guid: ec173b226e45f7c42b7fdd3e44fe682a, type: 2}
  - m_RefCount: 1
    m_Data: {fileID: 11400000, guid: 4d75b4f6ec3790d4ea2fde8d4847b10c, type: 2}
  - m_RefCount: 1
    m_Data: {fileID: 11400000, guid: b3e96772d0ea846458f1c59e6913e313, type: 2}
  - m_RefCount: 1
    m_Data: {fileID: 11400000, guid: 1257daaa45ea56b43b23d27eafc12ecd, type: 2}
  - m_RefCount: 1
    m_Data: {fileID: 11400000, guid: 3276b424a51a08d48b4895ce41a34339, type: 2}
  - m_RefCount: 1
    m_Data: {fileID: 11400000, guid: 357fb8d1707e5be4c8b9084ed304ec1a, type: 2}
  - m_RefCount: 1
    m_Data: {fileID: 11400000, guid: da23c1dc88f65094f8fd26fd98a967f2, type: 2}
  - m_RefCount: 1
    m_Data: {fileID: 11400000, guid: 370c0784d974f9d4d9169ddb05d5bd5a, type: 2}
  - m_RefCount: 1
    m_Data: {fileID: 11400000, guid: 44bc3550af2980d4fa293cdb85de0b29, type: 2}
  - m_RefCount: 1
    m_Data: {fileID: 11400000, guid: 1db0b305eeac38d499baec04e6388396, type: 2}
  - m_RefCount: 1
    m_Data: {fileID: 11400000, guid: 080bc5bca82836143bd1fa96afed5980, type: 2}
  m_TileSpriteArray:
  - m_RefCount: 1
    m_Data: {fileID: -8709518492691945334, guid: 94c880efa5e5412428cbdd9b645dbd8b,
      type: 3}
  - m_RefCount: 1
    m_Data: {fileID: 9079530037803798208, guid: 94c880efa5e5412428cbdd9b645dbd8b,
      type: 3}
  - m_RefCount: 1
    m_Data: {fileID: 5653525182941011136, guid: 94c880efa5e5412428cbdd9b645dbd8b,
      type: 3}
  - m_RefCount: 1
    m_Data: {fileID: 2788180372507635309, guid: 94c880efa5e5412428cbdd9b645dbd8b,
      type: 3}
  - m_RefCount: 1
    m_Data: {fileID: -8891517069492948205, guid: 94c880efa5e5412428cbdd9b645dbd8b,
      type: 3}
  - m_RefCount: 1
    m_Data: {fileID: -8011324266931113642, guid: 94c880efa5e5412428cbdd9b645dbd8b,
      type: 3}
  - m_RefCount: 1
    m_Data: {fileID: 6021999512780442188, guid: 94c880efa5e5412428cbdd9b645dbd8b,
      type: 3}
  - m_RefCount: 1
    m_Data: {fileID: 3849167218865527759, guid: 94c880efa5e5412428cbdd9b645dbd8b,
      type: 3}
  - m_RefCount: 1
    m_Data: {fileID: 4329925014928687354, guid: 94c880efa5e5412428cbdd9b645dbd8b,
      type: 3}
  - m_RefCount: 1
    m_Data: {fileID: -4011579364939066659, guid: 94c880efa5e5412428cbdd9b645dbd8b,
      type: 3}
  - m_RefCount: 1
    m_Data: {fileID: -903790163119402671, guid: 94c880efa5e5412428cbdd9b645dbd8b,
      type: 3}
  - m_RefCount: 1
    m_Data: {fileID: -390924608412871393, guid: 94c880efa5e5412428cbdd9b645dbd8b,
      type: 3}
  - m_RefCount: 1
    m_Data: {fileID: -2678694338434452759, guid: 94c880efa5e5412428cbdd9b645dbd8b,
      type: 3}
  - m_RefCount: 1
    m_Data: {fileID: -8760317133828487822, guid: 94c880efa5e5412428cbdd9b645dbd8b,
      type: 3}
  - m_RefCount: 1
    m_Data: {fileID: -7461630463810570895, guid: 94c880efa5e5412428cbdd9b645dbd8b,
      type: 3}
  - m_RefCount: 1
    m_Data: {fileID: -8407580382652475225, guid: 94c880efa5e5412428cbdd9b645dbd8b,
      type: 3}
  - m_RefCount: 1
    m_Data: {fileID: 1570409312069300918, guid: 94c880efa5e5412428cbdd9b645dbd8b,
      type: 3}
  - m_RefCount: 1
    m_Data: {fileID: -8084189926210994935, guid: 94c880efa5e5412428cbdd9b645dbd8b,
      type: 3}
  - m_RefCount: 1
    m_Data: {fileID: 5751484465983196115, guid: 94c880efa5e5412428cbdd9b645dbd8b,
      type: 3}
  - m_RefCount: 1
    m_Data: {fileID: -3418650104278430199, guid: 94c880efa5e5412428cbdd9b645dbd8b,
      type: 3}
  - m_RefCount: 1
    m_Data: {fileID: 1791537283668715653, guid: 94c880efa5e5412428cbdd9b645dbd8b,
      type: 3}
  - m_RefCount: 1
    m_Data: {fileID: -6761425128112007155, guid: 94c880efa5e5412428cbdd9b645dbd8b,
      type: 3}
  - m_RefCount: 1
    m_Data: {fileID: -2004420954884934125, guid: 94c880efa5e5412428cbdd9b645dbd8b,
      type: 3}
  - m_RefCount: 1
    m_Data: {fileID: 4586795441071118557, guid: 94c880efa5e5412428cbdd9b645dbd8b,
      type: 3}
  m_TileMatrixArray:
  - m_RefCount: 24
    m_Data:
      e00: 1
      e01: 0
      e02: 0
      e03: 0
      e10: 0
      e11: 1
      e12: 0
      e13: 0
      e20: 0
      e21: 0
      e22: 1
      e23: 0
      e30: 0
      e31: 0
      e32: 0
      e33: 1
  m_TileColorArray:
  - m_RefCount: 24
    m_Data: {r: 1, g: 1, b: 1, a: 1}
  m_AnimationFrameRate: 1
  m_Color: {r: 1, g: 1, b: 1, a: 1}
  m_Origin: {x: -1, y: -10, z: 0}
  m_Size: {x: 3, y: 10, z: 1}
  m_TileAnchor: {x: 0.5, y: 0.5, z: 0}
  m_TileOrientation: 0
  m_TileOrientationMatrix:
    e00: 1
    e01: 0
    e02: 0
    e03: 0
    e10: 0
    e11: 1
    e12: 0
    e13: 0
    e20: 0
    e21: 0
    e22: 1
    e23: 0
    e30: 0
    e31: 0
    e32: 0
    e33: 1
--- !u!483693784 &2903161013525941467
TilemapRenderer:
  m_ObjectHideFlags: 0
  m_CorrespondingSourceObject: {fileID: 0}
  m_PrefabInstance: {fileID: 0}
  m_PrefabAsset: {fileID: 0}
  m_GameObject: {fileID: 1684754366139197006}
  m_Enabled: 0
  m_CastShadows: 0
  m_ReceiveShadows: 0
  m_DynamicOccludee: 0
  m_MotionVectors: 1
  m_LightProbeUsage: 0
  m_ReflectionProbeUsage: 0
  m_RenderingLayerMask: 1
  m_RendererPriority: 0
  m_Materials:
  - {fileID: 10754, guid: 0000000000000000f000000000000000, type: 0}
  m_StaticBatchInfo:
    firstSubMesh: 0
    subMeshCount: 0
  m_StaticBatchRoot: {fileID: 0}
  m_ProbeAnchor: {fileID: 0}
  m_LightProbeVolumeOverride: {fileID: 0}
  m_ScaleInLightmap: 1
  m_ReceiveGI: 1
  m_PreserveUVs: 0
  m_IgnoreNormalsForChartDetection: 0
  m_ImportantGI: 0
  m_StitchLightmapSeams: 1
  m_SelectedEditorRenderState: 0
  m_MinimumChartSize: 4
  m_AutoUVMaxDistance: 0.5
  m_AutoUVMaxAngle: 89
  m_LightmapParameters: {fileID: 0}
  m_SortingLayerID: 0
  m_SortingLayer: 0
  m_SortingOrder: 0
  m_ChunkSize: {x: 32, y: 32, z: 32}
  m_ChunkCullingBounds: {x: 0, y: 0, z: 0}
  m_MaxChunkCount: 16
  m_MaxFrameAge: 16
  m_SortOrder: 0
  m_Mode: 0
  m_DetectChunkCullingBounds: 0
  m_MaskInteraction: 0
--- !u!1 &8587861472192791818
GameObject:
  m_ObjectHideFlags: 0
  m_CorrespondingSourceObject: {fileID: 0}
  m_PrefabInstance: {fileID: 0}
  m_PrefabAsset: {fileID: 0}
  serializedVersion: 6
  m_Component:
  - component: {fileID: 4568477336242677004}
  - component: {fileID: 3582137746210485412}
  m_Layer: 31
  m_Name: reed
  m_TagString: Untagged
  m_Icon: {fileID: 0}
  m_NavMeshLayer: 0
  m_StaticEditorFlags: 0
  m_IsActive: 1
--- !u!4 &4568477336242677004
Transform:
  m_ObjectHideFlags: 0
  m_CorrespondingSourceObject: {fileID: 0}
  m_PrefabInstance: {fileID: 0}
  m_PrefabAsset: {fileID: 0}
  m_GameObject: {fileID: 8587861472192791818}
  m_LocalRotation: {x: 0, y: 0, z: 0, w: 1}
  m_LocalPosition: {x: 0, y: 0, z: 0}
  m_LocalScale: {x: 1, y: 1, z: 1}
  m_Children:
  - {fileID: 8380077216917166125}
  m_Father: {fileID: 0}
  m_RootOrder: 0
  m_LocalEulerAnglesHint: {x: 0, y: 0, z: 0}
--- !u!156049354 &3582137746210485412
Grid:
  m_ObjectHideFlags: 0
  m_CorrespondingSourceObject: {fileID: 0}
  m_PrefabInstance: {fileID: 0}
  m_PrefabAsset: {fileID: 0}
  m_GameObject: {fileID: 8587861472192791818}
  m_Enabled: 1
  m_CellSize: {x: 1, y: 1, z: 0}
  m_CellGap: {x: 0, y: 0, z: 0}
  m_CellLayout: 0
  m_CellSwizzle: 0
--- !u!114 &7265195198488787076
MonoBehaviour:
  m_ObjectHideFlags: 0
  m_CorrespondingSourceObject: {fileID: 0}
  m_PrefabInstance: {fileID: 0}
  m_PrefabAsset: {fileID: 0}
  m_GameObject: {fileID: 0}
  m_Enabled: 1
  m_EditorHideFlags: 0
  m_Script: {fileID: 12395, guid: 0000000000000000e000000000000000, type: 0}
  m_Name: Palette Settings
  m_EditorClassIdentifier: 
  cellSizing: 0
