%YAML 1.1
%TAG !u! tag:unity3d.com,2011:
--- !u!1 &4243904063715143583
GameObject:
  m_ObjectHideFlags: 0
  m_CorrespondingSourceObject: {fileID: 0}
  m_PrefabInstance: {fileID: 0}
  m_PrefabAsset: {fileID: 0}
  serializedVersion: 6
  m_Component:
  - component: {fileID: 7302527455611499793}
  - component: {fileID: 6571943087097432197}
  m_Layer: 31
  m_Name: sand
  m_TagString: Untagged
  m_Icon: {fileID: 0}
  m_NavMeshLayer: 0
  m_StaticEditorFlags: 0
  m_IsActive: 1
--- !u!4 &7302527455611499793
Transform:
  m_ObjectHideFlags: 0
  m_CorrespondingSourceObject: {fileID: 0}
  m_PrefabInstance: {fileID: 0}
  m_PrefabAsset: {fileID: 0}
  m_GameObject: {fileID: 4243904063715143583}
  m_LocalRotation: {x: 0, y: 0, z: 0, w: 1}
  m_LocalPosition: {x: 0, y: 0, z: 0}
  m_LocalScale: {x: 1, y: 1, z: 1}
  m_Children:
  - {fileID: 8717417889797787672}
  m_Father: {fileID: 0}
  m_RootOrder: 0
  m_LocalEulerAnglesHint: {x: 0, y: 0, z: 0}
--- !u!156049354 &6571943087097432197
Grid:
  m_ObjectHideFlags: 0
  m_CorrespondingSourceObject: {fileID: 0}
  m_PrefabInstance: {fileID: 0}
  m_PrefabAsset: {fileID: 0}
  m_GameObject: {fileID: 4243904063715143583}
  m_Enabled: 1
  m_CellSize: {x: 1, y: 1, z: 0}
  m_CellGap: {x: 0, y: 0, z: 0}
  m_CellLayout: 0
  m_CellSwizzle: 0
--- !u!1 &6762785550051041591
GameObject:
  m_ObjectHideFlags: 0
  m_CorrespondingSourceObject: {fileID: 0}
  m_PrefabInstance: {fileID: 0}
  m_PrefabAsset: {fileID: 0}
  serializedVersion: 6
  m_Component:
  - component: {fileID: 8717417889797787672}
  - component: {fileID: 4950392242778469500}
  - component: {fileID: 1302260775633585548}
  m_Layer: 31
  m_Name: Layer1
  m_TagString: Untagged
  m_Icon: {fileID: 0}
  m_NavMeshLayer: 0
  m_StaticEditorFlags: 0
  m_IsActive: 1
--- !u!4 &8717417889797787672
Transform:
  m_ObjectHideFlags: 0
  m_CorrespondingSourceObject: {fileID: 0}
  m_PrefabInstance: {fileID: 0}
  m_PrefabAsset: {fileID: 0}
  m_GameObject: {fileID: 6762785550051041591}
  m_LocalRotation: {x: -0, y: -0, z: -0, w: 1}
  m_LocalPosition: {x: 0, y: 0, z: 0}
  m_LocalScale: {x: 1, y: 1, z: 1}
  m_Children: []
  m_Father: {fileID: 7302527455611499793}
  m_RootOrder: 0
  m_LocalEulerAnglesHint: {x: 0, y: 0, z: 0}
--- !u!1839735485 &4950392242778469500
Tilemap:
  m_ObjectHideFlags: 0
  m_CorrespondingSourceObject: {fileID: 0}
  m_PrefabInstance: {fileID: 0}
  m_PrefabAsset: {fileID: 0}
  m_GameObject: {fileID: 6762785550051041591}
  m_Enabled: 1
  m_Tiles:
  - first: {x: 0, y: -5, z: 0}
    second:
      m_TileIndex: 15
      m_TileSpriteIndex: 15
      m_TileMatrixIndex: 0
      m_TileColorIndex: 0
      m_ObjectToInstantiate: {fileID: 0}
      m_TileFlags: 1
      m_ColliderType: 1
  - first: {x: 1, y: -5, z: 0}
    second:
      m_TileIndex: 16
      m_TileSpriteIndex: 16
      m_TileMatrixIndex: 0
      m_TileColorIndex: 0
      m_ObjectToInstantiate: {fileID: 0}
      m_TileFlags: 1
      m_ColliderType: 1
  - first: {x: 2, y: -5, z: 0}
    second:
      m_TileIndex: 17
      m_TileSpriteIndex: 17
      m_TileMatrixIndex: 0
      m_TileColorIndex: 0
      m_ObjectToInstantiate: {fileID: 0}
      m_TileFlags: 1
      m_ColliderType: 1
  - first: {x: 0, y: -4, z: 0}
    second:
      m_TileIndex: 12
      m_TileSpriteIndex: 12
      m_TileMatrixIndex: 0
      m_TileColorIndex: 0
      m_ObjectToInstantiate: {fileID: 0}
      m_TileFlags: 1
      m_ColliderType: 1
  - first: {x: 1, y: -4, z: 0}
    second:
      m_TileIndex: 13
      m_TileSpriteIndex: 13
      m_TileMatrixIndex: 0
      m_TileColorIndex: 0
      m_ObjectToInstantiate: {fileID: 0}
      m_TileFlags: 1
      m_ColliderType: 1
  - first: {x: 2, y: -4, z: 0}
    second:
      m_TileIndex: 14
      m_TileSpriteIndex: 14
      m_TileMatrixIndex: 0
      m_TileColorIndex: 0
      m_ObjectToInstantiate: {fileID: 0}
      m_TileFlags: 1
      m_ColliderType: 1
  - first: {x: 0, y: -3, z: 0}
    second:
      m_TileIndex: 9
      m_TileSpriteIndex: 9
      m_TileMatrixIndex: 0
      m_TileColorIndex: 0
      m_ObjectToInstantiate: {fileID: 0}
      m_TileFlags: 1
      m_ColliderType: 1
  - first: {x: 1, y: -3, z: 0}
    second:
      m_TileIndex: 10
      m_TileSpriteIndex: 10
      m_TileMatrixIndex: 0
      m_TileColorIndex: 0
      m_ObjectToInstantiate: {fileID: 0}
      m_TileFlags: 1
      m_ColliderType: 1
  - first: {x: 2, y: -3, z: 0}
    second:
      m_TileIndex: 11
      m_TileSpriteIndex: 11
      m_TileMatrixIndex: 0
      m_TileColorIndex: 0
      m_ObjectToInstantiate: {fileID: 0}
      m_TileFlags: 1
      m_ColliderType: 1
  - first: {x: 0, y: -2, z: 0}
    second:
      m_TileIndex: 6
      m_TileSpriteIndex: 6
      m_TileMatrixIndex: 0
      m_TileColorIndex: 0
      m_ObjectToInstantiate: {fileID: 0}
      m_TileFlags: 1
      m_ColliderType: 1
  - first: {x: 1, y: -2, z: 0}
    second:
      m_TileIndex: 7
      m_TileSpriteIndex: 7
      m_TileMatrixIndex: 0
      m_TileColorIndex: 0
      m_ObjectToInstantiate: {fileID: 0}
      m_TileFlags: 1
      m_ColliderType: 1
  - first: {x: 2, y: -2, z: 0}
    second:
      m_TileIndex: 8
      m_TileSpriteIndex: 8
      m_TileMatrixIndex: 0
      m_TileColorIndex: 0
      m_ObjectToInstantiate: {fileID: 0}
      m_TileFlags: 1
      m_ColliderType: 1
  - first: {x: 0, y: -1, z: 0}
    second:
      m_TileIndex: 3
      m_TileSpriteIndex: 3
      m_TileMatrixIndex: 0
      m_TileColorIndex: 0
      m_ObjectToInstantiate: {fileID: 0}
      m_TileFlags: 1
      m_ColliderType: 1
  - first: {x: 1, y: -1, z: 0}
    second:
      m_TileIndex: 4
      m_TileSpriteIndex: 4
      m_TileMatrixIndex: 0
      m_TileColorIndex: 0
      m_ObjectToInstantiate: {fileID: 0}
      m_TileFlags: 1
      m_ColliderType: 1
  - first: {x: 2, y: -1, z: 0}
    second:
      m_TileIndex: 5
      m_TileSpriteIndex: 5
      m_TileMatrixIndex: 0
      m_TileColorIndex: 0
      m_ObjectToInstantiate: {fileID: 0}
      m_TileFlags: 1
      m_ColliderType: 1
  - first: {x: 0, y: 0, z: 0}
    second:
      m_TileIndex: 0
      m_TileSpriteIndex: 0
      m_TileMatrixIndex: 0
      m_TileColorIndex: 0
      m_ObjectToInstantiate: {fileID: 0}
      m_TileFlags: 1
      m_ColliderType: 1
  - first: {x: 1, y: 0, z: 0}
    second:
      m_TileIndex: 1
      m_TileSpriteIndex: 1
      m_TileMatrixIndex: 0
      m_TileColorIndex: 0
      m_ObjectToInstantiate: {fileID: 0}
      m_TileFlags: 1
      m_ColliderType: 1
  - first: {x: 2, y: 0, z: 0}
    second:
      m_TileIndex: 2
      m_TileSpriteIndex: 2
      m_TileMatrixIndex: 0
      m_TileColorIndex: 0
      m_ObjectToInstantiate: {fileID: 0}
      m_TileFlags: 1
      m_ColliderType: 1
  m_AnimatedTiles: {}
  m_TileAssetArray:
  - m_RefCount: 1
    m_Data: {fileID: 11400000, guid: a2e02a578b0d8ea4495dc38278cbe981, type: 2}
  - m_RefCount: 1
    m_Data: {fileID: 11400000, guid: c3b931b5a91424a40b57b11baf6f99ef, type: 2}
  - m_RefCount: 1
    m_Data: {fileID: 11400000, guid: a2ad4d63b5bd14044a3b4449a63ffb8d, type: 2}
  - m_RefCount: 1
    m_Data: {fileID: 11400000, guid: 2a5cb8b1e6db58049a4795e880973731, type: 2}
  - m_RefCount: 1
    m_Data: {fileID: 11400000, guid: 9c35ce5d13f2e094fad10babf8af182b, type: 2}
  - m_RefCount: 1
    m_Data: {fileID: 11400000, guid: e7c6fa2aa2d63eb46aec1fb2461dc5ab, type: 2}
  - m_RefCount: 1
    m_Data: {fileID: 11400000, guid: e17d84e98772f804fa516ec929b323e8, type: 2}
  - m_RefCount: 1
    m_Data: {fileID: 11400000, guid: 6a43fe873997d5945a88f6c85c788f59, type: 2}
  - m_RefCount: 1
    m_Data: {fileID: 11400000, guid: 2b58309c43d72834a889db2d1a2ec9c2, type: 2}
  - m_RefCount: 1
    m_Data: {fileID: 11400000, guid: 94f5feed748a8ee4bbd47eec300d06d6, type: 2}
  - m_RefCount: 1
    m_Data: {fileID: 11400000, guid: 847aa87a0b5080b45bdcc55d1515d3dc, type: 2}
  - m_RefCount: 1
    m_Data: {fileID: 11400000, guid: 8dd1cc0a20ebbc745a58744304460ab7, type: 2}
  - m_RefCount: 1
    m_Data: {fileID: 11400000, guid: 657ecff7fe565d945a40f4accd300a91, type: 2}
  - m_RefCount: 1
    m_Data: {fileID: 11400000, guid: 0a160ffd1fbae954bb663bf21a07d281, type: 2}
  - m_RefCount: 1
    m_Data: {fileID: 11400000, guid: 2566394423f86fc4a9792bb6fef4e969, type: 2}
  - m_RefCount: 1
    m_Data: {fileID: 11400000, guid: 033a69361f863354f98129365a99dd33, type: 2}
  - m_RefCount: 1
    m_Data: {fileID: 11400000, guid: 17e88f7926b8b884e82ed026498d2f84, type: 2}
  - m_RefCount: 1
    m_Data: {fileID: 11400000, guid: dba5204478a5b894e8c348bc05b526a1, type: 2}
  m_TileSpriteArray:
  - m_RefCount: 1
    m_Data: {fileID: 4360390788417139489, guid: 3bd1a7caa71ce8e4f81df718bbaeb3b0,
      type: 3}
  - m_RefCount: 1
    m_Data: {fileID: 5804625333536067221, guid: 3bd1a7caa71ce8e4f81df718bbaeb3b0,
      type: 3}
  - m_RefCount: 1
    m_Data: {fileID: 8363470912824194618, guid: 3bd1a7caa71ce8e4f81df718bbaeb3b0,
      type: 3}
  - m_RefCount: 1
    m_Data: {fileID: 4640418506762625372, guid: 3bd1a7caa71ce8e4f81df718bbaeb3b0,
      type: 3}
  - m_RefCount: 1
    m_Data: {fileID: -4879936915944305487, guid: 3bd1a7caa71ce8e4f81df718bbaeb3b0,
      type: 3}
  - m_RefCount: 1
    m_Data: {fileID: 3873693989045737049, guid: 3bd1a7caa71ce8e4f81df718bbaeb3b0,
      type: 3}
  - m_RefCount: 1
    m_Data: {fileID: -5208840736160344916, guid: 3bd1a7caa71ce8e4f81df718bbaeb3b0,
      type: 3}
  - m_RefCount: 1
    m_Data: {fileID: -2395829283879305415, guid: 3bd1a7caa71ce8e4f81df718bbaeb3b0,
      type: 3}
  - m_RefCount: 1
    m_Data: {fileID: -6118453146159910627, guid: 3bd1a7caa71ce8e4f81df718bbaeb3b0,
      type: 3}
  - m_RefCount: 1
    m_Data: {fileID: 7147706812949010814, guid: 3bd1a7caa71ce8e4f81df718bbaeb3b0,
      type: 3}
  - m_RefCount: 1
    m_Data: {fileID: -4674977733493773419, guid: 3bd1a7caa71ce8e4f81df718bbaeb3b0,
      type: 3}
  - m_RefCount: 1
    m_Data: {fileID: -7257371996624634434, guid: 3bd1a7caa71ce8e4f81df718bbaeb3b0,
      type: 3}
  - m_RefCount: 1
    m_Data: {fileID: 2341174088569508392, guid: 3bd1a7caa71ce8e4f81df718bbaeb3b0,
      type: 3}
  - m_RefCount: 1
    m_Data: {fileID: 6496501752664036759, guid: 3bd1a7caa71ce8e4f81df718bbaeb3b0,
      type: 3}
  - m_RefCount: 1
    m_Data: {fileID: 2363717366907432664, guid: 3bd1a7caa71ce8e4f81df718bbaeb3b0,
      type: 3}
  - m_RefCount: 1
    m_Data: {fileID: 3887684718818787849, guid: 3bd1a7caa71ce8e4f81df718bbaeb3b0,
      type: 3}
  - m_RefCount: 1
    m_Data: {fileID: -5021085490659415874, guid: 3bd1a7caa71ce8e4f81df718bbaeb3b0,
      type: 3}
  - m_RefCount: 1
    m_Data: {fileID: -301482029705008975, guid: 3bd1a7caa71ce8e4f81df718bbaeb3b0,
      type: 3}
  m_TileMatrixArray:
  - m_RefCount: 18
    m_Data:
      e00: 1
      e01: 0
      e02: 0
      e03: 0
      e10: 0
      e11: 1
      e12: 0
      e13: 0
      e20: 0
      e21: 0
      e22: 1
      e23: 0
      e30: 0
      e31: 0
      e32: 0
      e33: 1
  m_TileColorArray:
  - m_RefCount: 18
    m_Data: {r: 1, g: 1, b: 1, a: 1}
  m_AnimationFrameRate: 1
  m_Color: {r: 1, g: 1, b: 1, a: 1}
  m_Origin: {x: 0, y: -5, z: 0}
  m_Size: {x: 3, y: 6, z: 1}
  m_TileAnchor: {x: 0.5, y: 0.5, z: 0}
  m_TileOrientation: 0
  m_TileOrientationMatrix:
    e00: 1
    e01: 0
    e02: 0
    e03: 0
    e10: 0
    e11: 1
    e12: 0
    e13: 0
    e20: 0
    e21: 0
    e22: 1
    e23: 0
    e30: 0
    e31: 0
    e32: 0
    e33: 1
--- !u!483693784 &1302260775633585548
TilemapRenderer:
  m_ObjectHideFlags: 0
  m_CorrespondingSourceObject: {fileID: 0}
  m_PrefabInstance: {fileID: 0}
  m_PrefabAsset: {fileID: 0}
  m_GameObject: {fileID: 6762785550051041591}
  m_Enabled: 0
  m_CastShadows: 0
  m_ReceiveShadows: 0
  m_DynamicOccludee: 0
  m_MotionVectors: 1
  m_LightProbeUsage: 0
  m_ReflectionProbeUsage: 0
  m_RenderingLayerMask: 1
  m_RendererPriority: 0
  m_Materials:
  - {fileID: 10754, guid: 0000000000000000f000000000000000, type: 0}
  m_StaticBatchInfo:
    firstSubMesh: 0
    subMeshCount: 0
  m_StaticBatchRoot: {fileID: 0}
  m_ProbeAnchor: {fileID: 0}
  m_LightProbeVolumeOverride: {fileID: 0}
  m_ScaleInLightmap: 1
  m_ReceiveGI: 1
  m_PreserveUVs: 0
  m_IgnoreNormalsForChartDetection: 0
  m_ImportantGI: 0
  m_StitchLightmapSeams: 1
  m_SelectedEditorRenderState: 0
  m_MinimumChartSize: 4
  m_AutoUVMaxDistance: 0.5
  m_AutoUVMaxAngle: 89
  m_LightmapParameters: {fileID: 0}
  m_SortingLayerID: 0
  m_SortingLayer: 0
  m_SortingOrder: 0
  m_ChunkSize: {x: 32, y: 32, z: 32}
  m_ChunkCullingBounds: {x: 0, y: 0, z: 0}
  m_MaxChunkCount: 16
  m_MaxFrameAge: 16
  m_SortOrder: 0
  m_Mode: 0
  m_DetectChunkCullingBounds: 0
  m_MaskInteraction: 0
--- !u!114 &-5102046453453491753
MonoBehaviour:
  m_ObjectHideFlags: 0
  m_CorrespondingSourceObject: {fileID: 0}
  m_PrefabInstance: {fileID: 0}
  m_PrefabAsset: {fileID: 0}
  m_GameObject: {fileID: 0}
  m_Enabled: 1
  m_EditorHideFlags: 0
  m_Script: {fileID: 12395, guid: 0000000000000000e000000000000000, type: 0}
  m_Name: Palette Settings
  m_EditorClassIdentifier: 
  cellSizing: 0
